('/home/allan/trackproj/trackproj/build/manage/manage',
 True,
 False,
 True,
 None,
 None,
 False,
 False,
 None,
 True,
 'manage.pkg',
 [('out00-PYZ.pyz',
   '/home/allan/trackproj/trackproj/build/manage/out00-PYZ.pyz',
   'PYZ'),
  ('struct', '/usr/lib/python2.7/struct.pyc', 'PYMODULE'),
  ('pyimod01_os_path',
   '/usr/local/lib/python2.7/dist-packages/PyInstaller/loader/pyimod01_os_path.pyc',
   'PYMODULE'),
  ('pyimod02_archive',
   '/usr/local/lib/python2.7/dist-packages/PyInstaller/loader/pyimod02_archive.pyc',
   'PYMODULE'),
  ('pyimod03_importers',
   '/usr/local/lib/python2.7/dist-packages/PyInstaller/loader/pyimod03_importers.pyc',
   'PYMODULE'),
  ('pyiboot01_bootstrap',
   '/usr/local/lib/python2.7/dist-packages/PyInstaller/loader/pyiboot01_bootstrap.py',
   'PYSOURCE'),
  ('pyi_rth_django',
   '/usr/local/lib/python2.7/dist-packages/PyInstaller/loader/rthooks/pyi_rth_django.py',
   'PYSOURCE'),
  ('pyi_rth_pkgres',
   '/usr/local/lib/python2.7/dist-packages/PyInstaller/loader/rthooks/pyi_rth_pkgres.py',
   'PYSOURCE'),
  ('manage', '/home/allan/trackproj/trackproj/manage.py', 'PYSOURCE')],
 [],
 False,
 False,
 1493842897,
 [('run',
   '/usr/local/lib/python2.7/dist-packages/PyInstaller/bootloader/Linux-64bit/run',
   'EXECUTABLE')])
