('/home/allan/trackproj/trackproj/build/manage/out00-PYZ.pyz',
 [('pkg_resources',
   '/usr/lib/python2.7/dist-packages/pkg_resources/__init__.py',
   'PYMODULE'),
  ('pkg_resources._vendor.packaging.version',
   '/usr/lib/python2.7/dist-packages/pkg_resources/_vendor/packaging/version.py',
   'PYMODULE'),
  ('pkg_resources._vendor.packaging.markers',
   '/usr/lib/python2.7/dist-packages/pkg_resources/_vendor/packaging/markers.py',
   'PYMODULE'),
  ('pkg_resources._vendor',
   '/usr/lib/python2.7/dist-packages/pkg_resources/_vendor/__init__.py',
   'PYMODULE'),
  ('pkg_resources._vendor.packaging.__about__',
   '/usr/lib/python2.7/dist-packages/pkg_resources/_vendor/packaging/__about__.py',
   'PYMODULE'),
  ('pkg_resources._vendor.packaging._compat',
   '/usr/lib/python2.7/dist-packages/pkg_resources/_vendor/packaging/_compat.py',
   'PYMODULE'),
  ('pkg_resources._vendor.packaging.specifiers',
   '/usr/lib/python2.7/dist-packages/pkg_resources/_vendor/packaging/specifiers.py',
   'PYMODULE'),
  ('abc', '/usr/lib/python2.7/abc.py', 'PYMODULE'),
  ('_weakrefset', '/usr/lib/python2.7/_weakrefset.py', 'PYMODULE'),
  ('pkg_resources._vendor.packaging.requirements',
   '/usr/lib/python2.7/dist-packages/pkg_resources/_vendor/packaging/requirements.py',
   'PYMODULE'),
  ('string', '/usr/lib/python2.7/string.py', 'PYMODULE'),
  ('pkg_resources._vendor.pyparsing',
   '/usr/lib/python2.7/dist-packages/pkg_resources/_vendor/pyparsing.py',
   'PYMODULE'),
  ('inspect', '/usr/lib/python2.7/inspect.py', 'PYMODULE'),
  ('tokenize', '/usr/lib/python2.7/tokenize.py', 'PYMODULE'),
  ('token', '/usr/lib/python2.7/token.py', 'PYMODULE'),
  ('dis', '/usr/lib/python2.7/dis.py', 'PYMODULE'),
  ('opcode', '/usr/lib/python2.7/opcode.py', 'PYMODULE'),
  ('pdb', '/usr/lib/python2.7/pdb.py', 'PYMODULE'),
  ('shlex', '/usr/lib/python2.7/shlex.py', 'PYMODULE'),
  ('StringIO', '/usr/lib/python2.7/StringIO.py', 'PYMODULE'),
  ('copy_reg', '/usr/lib/python2.7/copy_reg.py', 'PYMODULE'),
  ('traceback', '/usr/lib/python2.7/traceback.py', 'PYMODULE'),
  ('repr', '/usr/lib/python2.7/repr.py', 'PYMODULE'),
  ('bdb', '/usr/lib/python2.7/bdb.py', 'PYMODULE'),
  ('fnmatch', '/usr/lib/python2.7/fnmatch.py', 'PYMODULE'),
  ('posixpath', '/usr/lib/python2.7/posixpath.py', 'PYMODULE'),
  ('genericpath', '/usr/lib/python2.7/genericpath.py', 'PYMODULE'),
  ('cmd', '/usr/lib/python2.7/cmd.py', 'PYMODULE'),
  ('pprint', '/usr/lib/python2.7/pprint.py', 'PYMODULE'),
  ('sre_constants', '/usr/lib/python2.7/sre_constants.py', 'PYMODULE'),
  ('sre', '/usr/lib/python2.7/sre.py', 'PYMODULE'),
  ('copy', '/usr/lib/python2.7/copy.py', 'PYMODULE'),
  ('weakref', '/usr/lib/python2.7/weakref.py', 'PYMODULE'),
  ('UserDict', '/usr/lib/python2.7/UserDict.py', 'PYMODULE'),
  ('_abcoll', '/usr/lib/python2.7/_abcoll.py', 'PYMODULE'),
  ('pkg_resources._vendor.packaging',
   '/usr/lib/python2.7/dist-packages/pkg_resources/_vendor/packaging/__init__.py',
   'PYMODULE'),
  ('pkg_resources._vendor.six',
   '/usr/lib/python2.7/dist-packages/pkg_resources/_vendor/six.py',
   'PYMODULE'),
  ('struct', '/usr/lib/python2.7/struct.py', 'PYMODULE'),
  ('pkg_resources._vendor.packaging._structures',
   '/usr/lib/python2.7/dist-packages/pkg_resources/_vendor/packaging/_structures.py',
   'PYMODULE'),
  ('pkg_resources._vendor.packaging.utils',
   '/usr/lib/python2.7/dist-packages/pkg_resources/_vendor/packaging/utils.py',
   'PYMODULE'),
  ('linecache', '/usr/lib/python2.7/linecache.py', 'PYMODULE'),
  ('distutils.util', '/usr/lib/python2.7/distutils/util.py', 'PYMODULE'),
  ('py_compile', '/usr/lib/python2.7/py_compile.py', 'PYMODULE'),
  ('distutils.sysconfig',
   '/usr/lib/python2.7/distutils/sysconfig.py',
   'PYMODULE'),
  ('_sysconfigdata', '/usr/lib/python2.7/_sysconfigdata.py', 'PYMODULE'),
  ('_sysconfigdata_nd',
   '/usr/lib/python2.7/plat-x86_64-linux-gnu/_sysconfigdata_nd.py',
   'PYMODULE'),
  ('_sysconfigdata_d',
   '/usr/lib/python2.7/plat-x86_64-linux-gnu/_sysconfigdata_d.py',
   'PYMODULE'),
  ('distutils.text_file',
   '/usr/lib/python2.7/distutils/text_file.py',
   'PYMODULE'),
  ('_osx_support', '/usr/lib/python2.7/_osx_support.py', 'PYMODULE'),
  ('contextlib', '/usr/lib/python2.7/contextlib.py', 'PYMODULE'),
  ('distutils.log', '/usr/lib/python2.7/distutils/log.py', 'PYMODULE'),
  ('distutils', '/usr/lib/python2.7/distutils/__init__.py', 'PYMODULE'),
  ('distutils.spawn', '/usr/lib/python2.7/distutils/spawn.py', 'PYMODULE'),
  ('distutils.debug', '/usr/lib/python2.7/distutils/debug.py', 'PYMODULE'),
  ('distutils.dep_util',
   '/usr/lib/python2.7/distutils/dep_util.py',
   'PYMODULE'),
  ('distutils.errors', '/usr/lib/python2.7/distutils/errors.py', 'PYMODULE'),
  ('sysconfig', '/usr/lib/python2.7/sysconfig.py', 'PYMODULE'),
  ('pkg_resources.extern',
   '/usr/lib/python2.7/dist-packages/pkg_resources/extern/__init__.py',
   'PYMODULE'),
  ('textwrap', '/usr/lib/python2.7/textwrap.py', 'PYMODULE'),
  ('tempfile', '/usr/lib/python2.7/tempfile.py', 'PYMODULE'),
  ('dummy_thread', '/usr/lib/python2.7/dummy_thread.py', 'PYMODULE'),
  ('random', '/usr/lib/python2.7/random.py', 'PYMODULE'),
  ('hashlib', '/usr/lib/python2.7/hashlib.py', 'PYMODULE'),
  ('logging', '/usr/lib/python2.7/logging/__init__.py', 'PYMODULE'),
  ('atexit', '/usr/lib/python2.7/atexit.py', 'PYMODULE'),
  ('threading', '/usr/lib/python2.7/threading.py', 'PYMODULE'),
  ('_threading_local', '/usr/lib/python2.7/_threading_local.py', 'PYMODULE'),
  ('email.parser', '/usr/lib/python2.7/email/parser.py', 'PYMODULE'),
  ('email', '/usr/lib/python2.7/email/__init__.py', 'PYMODULE'),
  ('email.mime', '/usr/lib/python2.7/email/mime/__init__.py', 'PYMODULE'),
  ('email.errors', '/usr/lib/python2.7/email/errors.py', 'PYMODULE'),
  ('email.message', '/usr/lib/python2.7/email/message.py', 'PYMODULE'),
  ('email.iterators', '/usr/lib/python2.7/email/iterators.py', 'PYMODULE'),
  ('email.generator', '/usr/lib/python2.7/email/generator.py', 'PYMODULE'),
  ('email.header', '/usr/lib/python2.7/email/header.py', 'PYMODULE'),
  ('email.base64mime', '/usr/lib/python2.7/email/base64mime.py', 'PYMODULE'),
  ('email.quoprimime', '/usr/lib/python2.7/email/quoprimime.py', 'PYMODULE'),
  ('email.utils', '/usr/lib/python2.7/email/utils.py', 'PYMODULE'),
  ('email.encoders', '/usr/lib/python2.7/email/encoders.py', 'PYMODULE'),
  ('quopri', '/usr/lib/python2.7/quopri.py', 'PYMODULE'),
  ('getopt', '/usr/lib/python2.7/getopt.py', 'PYMODULE'),
  ('email._parseaddr', '/usr/lib/python2.7/email/_parseaddr.py', 'PYMODULE'),
  ('calendar', '/usr/lib/python2.7/calendar.py', 'PYMODULE'),
  ('optparse', '/usr/lib/python2.7/optparse.py', 'PYMODULE'),
  ('gettext', '/usr/lib/python2.7/gettext.py', 'PYMODULE'),
  ('locale', '/usr/lib/python2.7/locale.py', 'PYMODULE'),
  ('urllib', '/usr/lib/python2.7/urllib.py', 'PYMODULE'),
  ('getpass', '/usr/lib/python2.7/getpass.py', 'PYMODULE'),
  ('ftplib', '/usr/lib/python2.7/ftplib.py', 'PYMODULE'),
  ('mimetools', '/usr/lib/python2.7/mimetools.py', 'PYMODULE'),
  ('rfc822', '/usr/lib/python2.7/rfc822.py', 'PYMODULE'),
  ('mimetypes', '/usr/lib/python2.7/mimetypes.py', 'PYMODULE'),
  ('httplib', '/usr/lib/python2.7/httplib.py', 'PYMODULE'),
  ('ssl', '/usr/lib/python2.7/ssl.py', 'PYMODULE'),
  ('nturl2path', '/usr/lib/python2.7/nturl2path.py', 'PYMODULE'),
  ('urlparse', '/usr/lib/python2.7/urlparse.py', 'PYMODULE'),
  ('socket', '/usr/lib/python2.7/socket.py', 'PYMODULE'),
  ('base64', '/usr/lib/python2.7/base64.py', 'PYMODULE'),
  ('email.charset', '/usr/lib/python2.7/email/charset.py', 'PYMODULE'),
  ('uu', '/usr/lib/python2.7/uu.py', 'PYMODULE'),
  ('email.feedparser', '/usr/lib/python2.7/email/feedparser.py', 'PYMODULE'),
  ('plistlib', '/usr/lib/python2.7/plistlib.py', 'PYMODULE'),
  ('xml.parsers.expat',
   '/usr/lib/python2.7/xml/parsers/expat.py',
   'PYMODULE'),
  ('xml.parsers', '/usr/lib/python2.7/xml/parsers/__init__.py', 'PYMODULE'),
  ('xml', '/usr/lib/python2.7/xml/__init__.py', 'PYMODULE'),
  ('xml.sax.expatreader',
   '/usr/lib/python2.7/xml/sax/expatreader.py',
   'PYMODULE'),
  ('xml.sax.saxutils', '/usr/lib/python2.7/xml/sax/saxutils.py', 'PYMODULE'),
  ('xml.sax', '/usr/lib/python2.7/xml/sax/__init__.py', 'PYMODULE'),
  ('xml.sax.handler', '/usr/lib/python2.7/xml/sax/handler.py', 'PYMODULE'),
  ('xml.sax._exceptions',
   '/usr/lib/python2.7/xml/sax/_exceptions.py',
   'PYMODULE'),
  ('xml.sax.xmlreader',
   '/usr/lib/python2.7/xml/sax/xmlreader.py',
   'PYMODULE'),
  ('collections', '/usr/lib/python2.7/collections.py', 'PYMODULE'),
  ('doctest', '/usr/lib/python2.7/doctest.py', 'PYMODULE'),
  ('difflib', '/usr/lib/python2.7/difflib.py', 'PYMODULE'),
  ('unittest', '/usr/lib/python2.7/unittest/__init__.py', 'PYMODULE'),
  ('unittest.signals', '/usr/lib/python2.7/unittest/signals.py', 'PYMODULE'),
  ('unittest.main', '/usr/lib/python2.7/unittest/main.py', 'PYMODULE'),
  ('unittest.runner', '/usr/lib/python2.7/unittest/runner.py', 'PYMODULE'),
  ('unittest.loader', '/usr/lib/python2.7/unittest/loader.py', 'PYMODULE'),
  ('unittest.suite', '/usr/lib/python2.7/unittest/suite.py', 'PYMODULE'),
  ('unittest.case', '/usr/lib/python2.7/unittest/case.py', 'PYMODULE'),
  ('unittest.result', '/usr/lib/python2.7/unittest/result.py', 'PYMODULE'),
  ('unittest.util', '/usr/lib/python2.7/unittest/util.py', 'PYMODULE'),
  ('heapq', '/usr/lib/python2.7/heapq.py', 'PYMODULE'),
  ('keyword', '/usr/lib/python2.7/keyword.py', 'PYMODULE'),
  ('platform', '/usr/lib/python2.7/platform.py', 'PYMODULE'),
  ('subprocess', '/usr/lib/python2.7/subprocess.py', 'PYMODULE'),
  ('pickle', '/usr/lib/python2.7/pickle.py', 'PYMODULE'),
  ('ctypes.wintypes', '/usr/lib/python2.7/ctypes/wintypes.py', 'PYMODULE'),
  ('ctypes', '/usr/lib/python2.7/ctypes/__init__.py', 'PYMODULE'),
  ('ctypes._endian', '/usr/lib/python2.7/ctypes/_endian.py', 'PYMODULE'),
  ('pkgutil', '/usr/lib/python2.7/pkgutil.py', 'PYMODULE'),
  ('functools', '/usr/lib/python2.7/functools.py', 'PYMODULE'),
  ('stat', '/usr/lib/python2.7/stat.py', 'PYMODULE'),
  ('warnings', '/usr/lib/python2.7/warnings.py', 'PYMODULE'),
  ('zipfile', '/usr/lib/python2.7/zipfile.py', 'PYMODULE'),
  ('shutil', '/usr/lib/python2.7/shutil.py', 'PYMODULE'),
  ('tarfile', '/usr/lib/python2.7/tarfile.py', 'PYMODULE'),
  ('gzip', '/usr/lib/python2.7/gzip.py', 'PYMODULE'),
  ('types', '/usr/lib/python2.7/types.py', 'PYMODULE'),
  ('re', '/usr/lib/python2.7/re.py', 'PYMODULE'),
  ('sre_parse', '/usr/lib/python2.7/sre_parse.py', 'PYMODULE'),
  ('sre_compile', '/usr/lib/python2.7/sre_compile.py', 'PYMODULE'),
  ('_strptime', '/usr/lib/python2.7/_strptime.py', 'PYMODULE'),
  ('io', '/usr/lib/python2.7/io.py', 'PYMODULE'),
  ('__future__', '/usr/lib/python2.7/__future__.py', 'PYMODULE'),
  ('django.utils.autoreload',
   '/usr/lib/python2.7/dist-packages/django/utils/autoreload.py',
   'PYMODULE'),
  ('django.utils.translation.trans_real',
   '/usr/lib/python2.7/dist-packages/django/utils/translation/trans_real.py',
   'PYMODULE'),
  ('django.template.base',
   '/usr/lib/python2.7/dist-packages/django/template/base.py',
   'PYMODULE'),
  ('django.template',
   '/usr/lib/python2.7/dist-packages/django/template/__init__.py',
   'PYMODULE'),
  ('django.template.utils',
   '/usr/lib/python2.7/dist-packages/django/template/utils.py',
   'PYMODULE'),
  ('django.utils.functional',
   '/usr/lib/python2.7/dist-packages/django/utils/functional.py',
   'PYMODULE'),
  ('django.template.engine',
   '/usr/lib/python2.7/dist-packages/django/template/engine.py',
   'PYMODULE'),
  ('django.template.loader',
   '/usr/lib/python2.7/dist-packages/django/template/loader.py',
   'PYMODULE'),
  ('django.template.loaders.base',
   '/usr/lib/python2.7/dist-packages/django/template/loaders/base.py',
   'PYMODULE'),
  ('django.template.loaders',
   '/usr/lib/python2.7/dist-packages/django/template/loaders/__init__.py',
   'PYMODULE'),
  ('django.template.loaders.cached',
   '/usr/lib/python2.7/dist-packages/django/template/loaders/cached.py',
   'PYMODULE'),
  ('django.template.loaders.eggs',
   '/usr/lib/python2.7/dist-packages/django/template/loaders/eggs.py',
   'PYMODULE'),
  ('django.template.loaders.filesystem',
   '/usr/lib/python2.7/dist-packages/django/template/loaders/filesystem.py',
   'PYMODULE'),
  ('django.template.loaders.app_directories',
   '/usr/lib/python2.7/dist-packages/django/template/loaders/app_directories.py',
   'PYMODULE'),
  ('django.template.loaders.locmem',
   '/usr/lib/python2.7/dist-packages/django/template/loaders/locmem.py',
   'PYMODULE'),
  ('django.template.debug',
   '/usr/lib/python2.7/dist-packages/django/template/debug.py',
   'PYMODULE'),
  ('django.template.backends.django',
   '/usr/lib/python2.7/dist-packages/django/template/backends/django.py',
   'PYMODULE'),
  ('django.template.backends',
   '/usr/lib/python2.7/dist-packages/django/template/backends/__init__.py',
   'PYMODULE'),
  ('django.template.backends.base',
   '/usr/lib/python2.7/dist-packages/django/template/backends/base.py',
   'PYMODULE'),
  ('django.utils.timezone',
   '/usr/lib/python2.7/dist-packages/django/utils/timezone.py',
   'PYMODULE'),
  ('pytz', '/usr/lib/python2.7/dist-packages/pytz/__init__.py', 'PYMODULE'),
  ('pytz.tzfile',
   '/usr/lib/python2.7/dist-packages/pytz/tzfile.py',
   'PYMODULE'),
  ('pytz.tzinfo',
   '/usr/lib/python2.7/dist-packages/pytz/tzinfo.py',
   'PYMODULE'),
  ('sets', '/usr/lib/python2.7/sets.py', 'PYMODULE'),
  ('bisect', '/usr/lib/python2.7/bisect.py', 'PYMODULE'),
  ('pytz.lazy', '/usr/lib/python2.7/dist-packages/pytz/lazy.py', 'PYMODULE'),
  ('pytz.exceptions',
   '/usr/lib/python2.7/dist-packages/pytz/exceptions.py',
   'PYMODULE'),
  ('django.utils.decorators',
   '/usr/lib/python2.7/dist-packages/django/utils/decorators.py',
   'PYMODULE'),
  ('django.utils.text',
   '/usr/lib/python2.7/dist-packages/django/utils/text.py',
   'PYMODULE'),
  ('django.utils.module_loading',
   '/usr/lib/python2.7/dist-packages/django/utils/module_loading.py',
   'PYMODULE'),
  ('django.utils.itercompat',
   '/usr/lib/python2.7/dist-packages/django/utils/itercompat.py',
   'PYMODULE'),
  ('django.utils.inspect',
   '/usr/lib/python2.7/dist-packages/django/utils/inspect.py',
   'PYMODULE'),
  ('django.utils.html',
   '/usr/lib/python2.7/dist-packages/django/utils/html.py',
   'PYMODULE'),
  ('django.utils.html_parser',
   '/usr/lib/python2.7/dist-packages/django/utils/html_parser.py',
   'PYMODULE'),
  ('django.utils.http',
   '/usr/lib/python2.7/dist-packages/django/utils/http.py',
   'PYMODULE'),
  ('django.utils.datastructures',
   '/usr/lib/python2.7/dist-packages/django/utils/datastructures.py',
   'PYMODULE'),
  ('django.utils.formats',
   '/usr/lib/python2.7/dist-packages/django/utils/formats.py',
   'PYMODULE'),
  ('django.utils.dateformat',
   '/usr/lib/python2.7/dist-packages/django/utils/dateformat.py',
   'PYMODULE'),
  ('django.utils.dates',
   '/usr/lib/python2.7/dist-packages/django/utils/dates.py',
   'PYMODULE'),
  ('django.utils.numberformat',
   '/usr/lib/python2.7/dist-packages/django/utils/numberformat.py',
   'PYMODULE'),
  ('django.utils.datetime_safe',
   '/usr/lib/python2.7/dist-packages/django/utils/datetime_safe.py',
   'PYMODULE'),
  ('decimal', '/usr/lib/python2.7/decimal.py', 'PYMODULE'),
  ('numbers', '/usr/lib/python2.7/numbers.py', 'PYMODULE'),
  ('django.template.context',
   '/usr/lib/python2.7/dist-packages/django/template/context.py',
   'PYMODULE'),
  ('importlib', '/usr/lib/python2.7/importlib/__init__.py', 'PYMODULE'),
  ('django.utils.safestring',
   '/usr/lib/python2.7/dist-packages/django/utils/safestring.py',
   'PYMODULE'),
  ('django.utils.encoding',
   '/usr/lib/python2.7/dist-packages/django/utils/encoding.py',
   'PYMODULE'),
  ('django.utils.deprecation',
   '/usr/lib/python2.7/dist-packages/django/utils/deprecation.py',
   'PYMODULE'),
  ('django.utils.lru_cache',
   '/usr/lib/python2.7/dist-packages/django/utils/lru_cache.py',
   'PYMODULE'),
  ('django.dispatch',
   '/usr/lib/python2.7/dist-packages/django/dispatch/__init__.py',
   'PYMODULE'),
  ('django.dispatch.dispatcher',
   '/usr/lib/python2.7/dist-packages/django/dispatch/dispatcher.py',
   'PYMODULE'),
  ('django.dispatch.weakref_backports',
   '/usr/lib/python2.7/dist-packages/django/dispatch/weakref_backports.py',
   'PYMODULE'),
  ('django.core.exceptions',
   '/usr/lib/python2.7/dist-packages/django/core/exceptions.py',
   'PYMODULE'),
  ('django.core',
   '/usr/lib/python2.7/dist-packages/django/core/__init__.py',
   'PYMODULE'),
  ('django.core.checks',
   '/usr/lib/python2.7/dist-packages/django/core/checks/__init__.py',
   'PYMODULE'),
  ('django.core.checks.security.sessions',
   '/usr/lib/python2.7/dist-packages/django/core/checks/security/sessions.py',
   'PYMODULE'),
  ('django.core.checks.security',
   '/usr/lib/python2.7/dist-packages/django/core/checks/security/__init__.py',
   'PYMODULE'),
  ('django.core.checks.security.csrf',
   '/usr/lib/python2.7/dist-packages/django/core/checks/security/csrf.py',
   'PYMODULE'),
  ('django.core.checks.security.base',
   '/usr/lib/python2.7/dist-packages/django/core/checks/security/base.py',
   'PYMODULE'),
  ('django.core.checks.model_checks',
   '/usr/lib/python2.7/dist-packages/django/core/checks/model_checks.py',
   'PYMODULE'),
  ('django.db.models',
   '/usr/lib/python2.7/dist-packages/django/db/models/__init__.py',
   'PYMODULE'),
  ('django.db.models.loading',
   '/usr/lib/python2.7/dist-packages/django/db/models/loading.py',
   'PYMODULE'),
  ('django.core.urlresolvers',
   '/usr/lib/python2.7/dist-packages/django/core/urlresolvers.py',
   'PYMODULE'),
  ('django.conf.urls',
   '/usr/lib/python2.7/dist-packages/django/conf/urls/__init__.py',
   'PYMODULE'),
  ('django.utils.regex_helper',
   '/usr/lib/python2.7/dist-packages/django/utils/regex_helper.py',
   'PYMODULE'),
  ('django.http',
   '/usr/lib/python2.7/dist-packages/django/http/__init__.py',
   'PYMODULE'),
  ('django.http.utils',
   '/usr/lib/python2.7/dist-packages/django/http/utils.py',
   'PYMODULE'),
  ('django.http.response',
   '/usr/lib/python2.7/dist-packages/django/http/response.py',
   'PYMODULE'),
  ('django.core.serializers.json',
   '/usr/lib/python2.7/dist-packages/django/core/serializers/json.py',
   'PYMODULE'),
  ('django.core.serializers',
   '/usr/lib/python2.7/dist-packages/django/core/serializers/__init__.py',
   'PYMODULE'),
  ('django.core.serializers.python',
   '/usr/lib/python2.7/dist-packages/django/core/serializers/python.py',
   'PYMODULE'),
  ('django.core.serializers.base',
   '/usr/lib/python2.7/dist-packages/django/core/serializers/base.py',
   'PYMODULE'),
  ('uuid', '/usr/lib/python2.7/uuid.py', 'PYMODULE'),
  ('ctypes.util', '/usr/lib/python2.7/ctypes/util.py', 'PYMODULE'),
  ('json', '/usr/lib/python2.7/json/__init__.py', 'PYMODULE'),
  ('json.encoder', '/usr/lib/python2.7/json/encoder.py', 'PYMODULE'),
  ('json.decoder', '/usr/lib/python2.7/json/decoder.py', 'PYMODULE'),
  ('json.scanner', '/usr/lib/python2.7/json/scanner.py', 'PYMODULE'),
  ('django.http.request',
   '/usr/lib/python2.7/dist-packages/django/http/request.py',
   'PYMODULE'),
  ('django.http.multipartparser',
   '/usr/lib/python2.7/dist-packages/django/http/multipartparser.py',
   'PYMODULE'),
  ('cgi', '/usr/lib/python2.7/cgi.py', 'PYMODULE'),
  ('django.core.files.uploadhandler',
   '/usr/lib/python2.7/dist-packages/django/core/files/uploadhandler.py',
   'PYMODULE'),
  ('django.core.files.uploadedfile',
   '/usr/lib/python2.7/dist-packages/django/core/files/uploadedfile.py',
   'PYMODULE'),
  ('django.core.files.base',
   '/usr/lib/python2.7/dist-packages/django/core/files/base.py',
   'PYMODULE'),
  ('django.core.files.utils',
   '/usr/lib/python2.7/dist-packages/django/core/files/utils.py',
   'PYMODULE'),
  ('django.core.files.temp',
   '/usr/lib/python2.7/dist-packages/django/core/files/temp.py',
   'PYMODULE'),
  ('django.core.files',
   '/usr/lib/python2.7/dist-packages/django/core/files/__init__.py',
   'PYMODULE'),
  ('django.core.files.locks',
   '/usr/lib/python2.7/dist-packages/django/core/files/locks.py',
   'PYMODULE'),
  ('django.http.cookie',
   '/usr/lib/python2.7/dist-packages/django/http/cookie.py',
   'PYMODULE'),
  ('django.db.models.lookups',
   '/usr/lib/python2.7/dist-packages/django/db/models/lookups.py',
   'PYMODULE'),
  ('django.db.models.sql.datastructures',
   '/usr/lib/python2.7/dist-packages/django/db/models/sql/datastructures.py',
   'PYMODULE'),
  ('django.db.models.sql.constants',
   '/usr/lib/python2.7/dist-packages/django/db/models/sql/constants.py',
   'PYMODULE'),
  ('django.db.models.query_utils',
   '/usr/lib/python2.7/dist-packages/django/db/models/query_utils.py',
   'PYMODULE'),
  ('django.utils.tree',
   '/usr/lib/python2.7/dist-packages/django/utils/tree.py',
   'PYMODULE'),
  ('django.db.models.constants',
   '/usr/lib/python2.7/dist-packages/django/db/models/constants.py',
   'PYMODULE'),
  ('django.db.backends.utils',
   '/usr/lib/python2.7/dist-packages/django/db/backends/utils.py',
   'PYMODULE'),
  ('django.db.backends',
   '/usr/lib/python2.7/dist-packages/django/db/backends/__init__.py',
   'PYMODULE'),
  ('django.db.backends.mysql.base',
   '/usr/lib/python2.7/dist-packages/django/db/backends/mysql/base.py',
   'PYMODULE'),
  ('django.db.backends.mysql.compiler',
   '/usr/lib/python2.7/dist-packages/django/db/backends/mysql/compiler.py',
   'PYMODULE'),
  ('django.db.backends.mysql.validation',
   '/usr/lib/python2.7/dist-packages/django/db/backends/mysql/validation.py',
   'PYMODULE'),
  ('django.db.backends.base.validation',
   '/usr/lib/python2.7/dist-packages/django/db/backends/base/validation.py',
   'PYMODULE'),
  ('django.db.backends.base',
   '/usr/lib/python2.7/dist-packages/django/db/backends/base/__init__.py',
   'PYMODULE'),
  ('django.db.backends.mysql.schema',
   '/usr/lib/python2.7/dist-packages/django/db/backends/mysql/schema.py',
   'PYMODULE'),
  ('django.db.backends.base.schema',
   '/usr/lib/python2.7/dist-packages/django/db/backends/base/schema.py',
   'PYMODULE'),
  ('django.utils.log',
   '/usr/lib/python2.7/dist-packages/django/utils/log.py',
   'PYMODULE'),
  ('django.views.debug',
   '/usr/lib/python2.7/dist-packages/django/views/debug.py',
   'PYMODULE'),
  ('django.views',
   '/usr/lib/python2.7/dist-packages/django/views/__init__.py',
   'PYMODULE'),
  ('django.template.defaultfilters',
   '/usr/lib/python2.7/dist-packages/django/template/defaultfilters.py',
   'PYMODULE'),
  ('django.utils.timesince',
   '/usr/lib/python2.7/dist-packages/django/utils/timesince.py',
   'PYMODULE'),
  ('logging.config', '/usr/lib/python2.7/logging/config.py', 'PYMODULE'),
  ('ConfigParser', '/usr/lib/python2.7/ConfigParser.py', 'PYMODULE'),
  ('SocketServer', '/usr/lib/python2.7/SocketServer.py', 'PYMODULE'),
  ('dummy_threading', '/usr/lib/python2.7/dummy_threading.py', 'PYMODULE'),
  ('logging.handlers', '/usr/lib/python2.7/logging/handlers.py', 'PYMODULE'),
  ('smtplib', '/usr/lib/python2.7/smtplib.py', 'PYMODULE'),
  ('hmac', '/usr/lib/python2.7/hmac.py', 'PYMODULE'),
  ('django.db.transaction',
   '/usr/lib/python2.7/dist-packages/django/db/transaction.py',
   'PYMODULE'),
  ('django.db.backends.mysql.operations',
   '/usr/lib/python2.7/dist-packages/django/db/backends/mysql/operations.py',
   'PYMODULE'),
  ('django.db.backends.base.operations',
   '/usr/lib/python2.7/dist-packages/django/db/backends/base/operations.py',
   'PYMODULE'),
  ('django.core.management.sql',
   '/usr/lib/python2.7/dist-packages/django/core/management/sql.py',
   'PYMODULE'),
  ('django.db.migrations.loader',
   '/usr/lib/python2.7/dist-packages/django/db/migrations/loader.py',
   'PYMODULE'),
  ('django.db.migrations',
   '/usr/lib/python2.7/dist-packages/django/db/migrations/__init__.py',
   'PYMODULE'),
  ('django.db.migrations.operations',
   '/usr/lib/python2.7/dist-packages/django/db/migrations/operations/__init__.py',
   'PYMODULE'),
  ('django.db.migrations.operations.special',
   '/usr/lib/python2.7/dist-packages/django/db/migrations/operations/special.py',
   'PYMODULE'),
  ('django.db.migrations.operations.base',
   '/usr/lib/python2.7/dist-packages/django/db/migrations/operations/base.py',
   'PYMODULE'),
  ('django.db.migrations.operations.fields',
   '/usr/lib/python2.7/dist-packages/django/db/migrations/operations/fields.py',
   'PYMODULE'),
  ('django.db.migrations.operations.models',
   '/usr/lib/python2.7/dist-packages/django/db/migrations/operations/models.py',
   'PYMODULE'),
  ('django.db.models.options',
   '/usr/lib/python2.7/dist-packages/django/db/models/options.py',
   'PYMODULE'),
  ('django.db.migrations.state',
   '/usr/lib/python2.7/dist-packages/django/db/migrations/state.py',
   'PYMODULE'),
  ('django.apps.registry',
   '/usr/lib/python2.7/dist-packages/django/apps/registry.py',
   'PYMODULE'),
  ('django.apps.config',
   '/usr/lib/python2.7/dist-packages/django/apps/config.py',
   'PYMODULE'),
  ('django.db.migrations.migration',
   '/usr/lib/python2.7/dist-packages/django/db/migrations/migration.py',
   'PYMODULE'),
  ('django.db.migrations.recorder',
   '/usr/lib/python2.7/dist-packages/django/db/migrations/recorder.py',
   'PYMODULE'),
  ('django.db.migrations.graph',
   '/usr/lib/python2.7/dist-packages/django/db/migrations/graph.py',
   'PYMODULE'),
  ('django.utils.version',
   '/usr/lib/python2.7/dist-packages/django/utils/version.py',
   'PYMODULE'),
  ('django.core.management.base',
   '/usr/lib/python2.7/dist-packages/django/core/management/base.py',
   'PYMODULE'),
  ('django.core.management.color',
   '/usr/lib/python2.7/dist-packages/django/core/management/color.py',
   'PYMODULE'),
  ('django.utils.termcolors',
   '/usr/lib/python2.7/dist-packages/django/utils/termcolors.py',
   'PYMODULE'),
  ('argparse', '/usr/lib/python2.7/argparse.py', 'PYMODULE'),
  ('sqlparse',
   '/usr/lib/python2.7/dist-packages/sqlparse/__init__.py',
   'PYMODULE'),
  ('sqlparse.engine.filter',
   '/usr/lib/python2.7/dist-packages/sqlparse/engine/filter.py',
   'PYMODULE'),
  ('sqlparse.exceptions',
   '/usr/lib/python2.7/dist-packages/sqlparse/exceptions.py',
   'PYMODULE'),
  ('sqlparse.formatter',
   '/usr/lib/python2.7/dist-packages/sqlparse/formatter.py',
   'PYMODULE'),
  ('sqlparse.filters',
   '/usr/lib/python2.7/dist-packages/sqlparse/filters.py',
   'PYMODULE'),
  ('sqlparse.utils',
   '/usr/lib/python2.7/dist-packages/sqlparse/utils.py',
   'PYMODULE'),
  ('sqlparse.pipeline',
   '/usr/lib/python2.7/dist-packages/sqlparse/pipeline.py',
   'PYMODULE'),
  ('sqlparse.engine',
   '/usr/lib/python2.7/dist-packages/sqlparse/engine/__init__.py',
   'PYMODULE'),
  ('sqlparse.engine.grouping',
   '/usr/lib/python2.7/dist-packages/sqlparse/engine/grouping.py',
   'PYMODULE'),
  ('sqlparse.lexer',
   '/usr/lib/python2.7/dist-packages/sqlparse/lexer.py',
   'PYMODULE'),
  ('sqlparse.keywords',
   '/usr/lib/python2.7/dist-packages/sqlparse/keywords.py',
   'PYMODULE'),
  ('sqlparse.sql',
   '/usr/lib/python2.7/dist-packages/sqlparse/sql.py',
   'PYMODULE'),
  ('sqlparse.tokens',
   '/usr/lib/python2.7/dist-packages/sqlparse/tokens.py',
   'PYMODULE'),
  ('django.utils.dateparse',
   '/usr/lib/python2.7/dist-packages/django/utils/dateparse.py',
   'PYMODULE'),
  ('django.db.backends.mysql.introspection',
   '/usr/lib/python2.7/dist-packages/django/db/backends/mysql/introspection.py',
   'PYMODULE'),
  ('django.db.backends.base.introspection',
   '/usr/lib/python2.7/dist-packages/django/db/backends/base/introspection.py',
   'PYMODULE'),
  ('django.db.backends.mysql.features',
   '/usr/lib/python2.7/dist-packages/django/db/backends/mysql/features.py',
   'PYMODULE'),
  ('django.db.backends.base.features',
   '/usr/lib/python2.7/dist-packages/django/db/backends/base/features.py',
   'PYMODULE'),
  ('django.db.backends.mysql',
   '/usr/lib/python2.7/dist-packages/django/db/backends/mysql/__init__.py',
   'PYMODULE'),
  ('django.db.backends.mysql.creation',
   '/usr/lib/python2.7/dist-packages/django/db/backends/mysql/creation.py',
   'PYMODULE'),
  ('django.db.backends.base.creation',
   '/usr/lib/python2.7/dist-packages/django/db/backends/base/creation.py',
   'PYMODULE'),
  ('django.db.backends.mysql.client',
   '/usr/lib/python2.7/dist-packages/django/db/backends/mysql/client.py',
   'PYMODULE'),
  ('django.db.backends.base.client',
   '/usr/lib/python2.7/dist-packages/django/db/backends/base/client.py',
   'PYMODULE'),
  ('MySQLdb.converters',
   '/usr/lib/python2.7/dist-packages/MySQLdb/converters.py',
   'PYMODULE'),
  ('MySQLdb.compat',
   '/usr/lib/python2.7/dist-packages/MySQLdb/compat.py',
   'PYMODULE'),
  ('MySQLdb.times',
   '/usr/lib/python2.7/dist-packages/MySQLdb/times.py',
   'PYMODULE'),
  ('MySQLdb.constants.FLAG',
   '/usr/lib/python2.7/dist-packages/MySQLdb/constants/FLAG.py',
   'PYMODULE'),
  ('_mysql_exceptions',
   '/usr/lib/python2.7/dist-packages/_mysql_exceptions.py',
   'PYMODULE'),
  ('MySQLdb.constants.CLIENT',
   '/usr/lib/python2.7/dist-packages/MySQLdb/constants/CLIENT.py',
   'PYMODULE'),
  ('MySQLdb.constants.FIELD_TYPE',
   '/usr/lib/python2.7/dist-packages/MySQLdb/constants/FIELD_TYPE.py',
   'PYMODULE'),
  ('MySQLdb.constants',
   '/usr/lib/python2.7/dist-packages/MySQLdb/constants/__init__.py',
   'PYMODULE'),
  ('MySQLdb',
   '/usr/lib/python2.7/dist-packages/MySQLdb/__init__.py',
   'PYMODULE'),
  ('MySQLdb.connections',
   '/usr/lib/python2.7/dist-packages/MySQLdb/connections.py',
   'PYMODULE'),
  ('MySQLdb.cursors',
   '/usr/lib/python2.7/dist-packages/MySQLdb/cursors.py',
   'PYMODULE'),
  ('MySQLdb.release',
   '/usr/lib/python2.7/dist-packages/MySQLdb/release.py',
   'PYMODULE'),
  ('django.db.utils',
   '/usr/lib/python2.7/dist-packages/django/db/utils.py',
   'PYMODULE'),
  ('django.db.backends.sqlite3.base',
   '/usr/lib/python2.7/dist-packages/django/db/backends/sqlite3/base.py',
   'PYMODULE'),
  ('django.db.backends.sqlite3.utils',
   '/usr/lib/python2.7/dist-packages/django/db/backends/sqlite3/utils.py',
   'PYMODULE'),
  ('django.db.backends.sqlite3.schema',
   '/usr/lib/python2.7/dist-packages/django/db/backends/sqlite3/schema.py',
   'PYMODULE'),
  ('django.db.backends.sqlite3.operations',
   '/usr/lib/python2.7/dist-packages/django/db/backends/sqlite3/operations.py',
   'PYMODULE'),
  ('django.utils.duration',
   '/usr/lib/python2.7/dist-packages/django/utils/duration.py',
   'PYMODULE'),
  ('django.db.backends.sqlite3.introspection',
   '/usr/lib/python2.7/dist-packages/django/db/backends/sqlite3/introspection.py',
   'PYMODULE'),
  ('django.db.backends.sqlite3.features',
   '/usr/lib/python2.7/dist-packages/django/db/backends/sqlite3/features.py',
   'PYMODULE'),
  ('django.db.backends.sqlite3',
   '/usr/lib/python2.7/dist-packages/django/db/backends/sqlite3/__init__.py',
   'PYMODULE'),
  ('django.db.backends.sqlite3.creation',
   '/usr/lib/python2.7/dist-packages/django/db/backends/sqlite3/creation.py',
   'PYMODULE'),
  ('django.db.backends.sqlite3.client',
   '/usr/lib/python2.7/dist-packages/django/db/backends/sqlite3/client.py',
   'PYMODULE'),
  ('sqlite3.dbapi2', '/usr/lib/python2.7/sqlite3/dbapi2.py', 'PYMODULE'),
  ('sqlite3', '/usr/lib/python2.7/sqlite3/__init__.py', 'PYMODULE'),
  ('sqlite3.dump', '/usr/lib/python2.7/sqlite3/dump.py', 'PYMODULE'),
  ('django.db.backends.base.base',
   '/usr/lib/python2.7/dist-packages/django/db/backends/base/base.py',
   'PYMODULE'),
  ('django.db.backends.signals',
   '/usr/lib/python2.7/dist-packages/django/db/backends/signals.py',
   'PYMODULE'),
  ('django.db.backends.dummy.base',
   '/usr/lib/python2.7/dist-packages/django/db/backends/dummy/base.py',
   'PYMODULE'),
  ('django.db.backends.dummy',
   '/usr/lib/python2.7/dist-packages/django/db/backends/dummy/__init__.py',
   'PYMODULE'),
  ('django.db.backends.oracle.base',
   '/usr/lib/python2.7/dist-packages/django/db/backends/oracle/base.py',
   'PYMODULE'),
  ('django.db.backends.oracle.compiler',
   '/usr/lib/python2.7/dist-packages/django/db/backends/oracle/compiler.py',
   'PYMODULE'),
  ('django.db.backends.oracle.utils',
   '/usr/lib/python2.7/dist-packages/django/db/backends/oracle/utils.py',
   'PYMODULE'),
  ('django.db.backends.oracle.schema',
   '/usr/lib/python2.7/dist-packages/django/db/backends/oracle/schema.py',
   'PYMODULE'),
  ('django.db.backends.oracle.operations',
   '/usr/lib/python2.7/dist-packages/django/db/backends/oracle/operations.py',
   'PYMODULE'),
  ('django.db.backends.oracle',
   '/usr/lib/python2.7/dist-packages/django/db/backends/oracle/__init__.py',
   'PYMODULE'),
  ('django.db.backends.oracle.introspection',
   '/usr/lib/python2.7/dist-packages/django/db/backends/oracle/introspection.py',
   'PYMODULE'),
  ('django.db.backends.oracle.features',
   '/usr/lib/python2.7/dist-packages/django/db/backends/oracle/features.py',
   'PYMODULE'),
  ('django.db.backends.oracle.creation',
   '/usr/lib/python2.7/dist-packages/django/db/backends/oracle/creation.py',
   'PYMODULE'),
  ('django.utils.crypto',
   '/usr/lib/python2.7/dist-packages/django/utils/crypto.py',
   'PYMODULE'),
  ('django.db.backends.oracle.client',
   '/usr/lib/python2.7/dist-packages/django/db/backends/oracle/client.py',
   'PYMODULE'),
  ('django.db.backends.postgresql_psycopg2.base',
   '/usr/lib/python2.7/dist-packages/django/db/backends/postgresql_psycopg2/base.py',
   'PYMODULE'),
  ('django.db.backends.postgresql_psycopg2',
   '/usr/lib/python2.7/dist-packages/django/db/backends/postgresql_psycopg2/__init__.py',
   'PYMODULE'),
  ('django.db.backends.postgresql_psycopg2.version',
   '/usr/lib/python2.7/dist-packages/django/db/backends/postgresql_psycopg2/version.py',
   'PYMODULE'),
  ('django.db.backends.postgresql_psycopg2.utils',
   '/usr/lib/python2.7/dist-packages/django/db/backends/postgresql_psycopg2/utils.py',
   'PYMODULE'),
  ('django.db.backends.postgresql_psycopg2.schema',
   '/usr/lib/python2.7/dist-packages/django/db/backends/postgresql_psycopg2/schema.py',
   'PYMODULE'),
  ('django.db.backends.postgresql_psycopg2.operations',
   '/usr/lib/python2.7/dist-packages/django/db/backends/postgresql_psycopg2/operations.py',
   'PYMODULE'),
  ('django.db.backends.postgresql_psycopg2.introspection',
   '/usr/lib/python2.7/dist-packages/django/db/backends/postgresql_psycopg2/introspection.py',
   'PYMODULE'),
  ('django.db.backends.postgresql_psycopg2.features',
   '/usr/lib/python2.7/dist-packages/django/db/backends/postgresql_psycopg2/features.py',
   'PYMODULE'),
  ('django.db.backends.postgresql_psycopg2.creation',
   '/usr/lib/python2.7/dist-packages/django/db/backends/postgresql_psycopg2/creation.py',
   'PYMODULE'),
  ('django.db.backends.postgresql_psycopg2.client',
   '/usr/lib/python2.7/dist-packages/django/db/backends/postgresql_psycopg2/client.py',
   'PYMODULE'),
  ('django.db.models.sql.compiler',
   '/usr/lib/python2.7/dist-packages/django/db/models/sql/compiler.py',
   'PYMODULE'),
  ('django.db.models.sql.query',
   '/usr/lib/python2.7/dist-packages/django/db/models/sql/query.py',
   'PYMODULE'),
  ('django.db.models.sql.subqueries',
   '/usr/lib/python2.7/dist-packages/django/db/models/sql/subqueries.py',
   'PYMODULE'),
  ('django.db.models.sql.where',
   '/usr/lib/python2.7/dist-packages/django/db/models/sql/where.py',
   'PYMODULE'),
  ('django.db.models.deletion',
   '/usr/lib/python2.7/dist-packages/django/db/models/deletion.py',
   'PYMODULE'),
  ('django.db.models.fields.proxy',
   '/usr/lib/python2.7/dist-packages/django/db/models/fields/proxy.py',
   'PYMODULE'),
  ('django.db.models.fields.related',
   '/usr/lib/python2.7/dist-packages/django/db/models/fields/related.py',
   'PYMODULE'),
  ('django.db.migrations.writer',
   '/usr/lib/python2.7/dist-packages/django/db/migrations/writer.py',
   'PYMODULE'),
  ('django.forms',
   '/usr/lib/python2.7/dist-packages/django/forms/__init__.py',
   'PYMODULE'),
  ('django.forms.widgets',
   '/usr/lib/python2.7/dist-packages/django/forms/widgets.py',
   'PYMODULE'),
  ('django.forms.utils',
   '/usr/lib/python2.7/dist-packages/django/forms/utils.py',
   'PYMODULE'),
  ('UserList', '/usr/lib/python2.7/UserList.py', 'PYMODULE'),
  ('django.forms.models',
   '/usr/lib/python2.7/dist-packages/django/forms/models.py',
   'PYMODULE'),
  ('django.forms.formsets',
   '/usr/lib/python2.7/dist-packages/django/forms/formsets.py',
   'PYMODULE'),
  ('django.forms.forms',
   '/usr/lib/python2.7/dist-packages/django/forms/forms.py',
   'PYMODULE'),
  ('django.forms.fields',
   '/usr/lib/python2.7/dist-packages/django/forms/fields.py',
   'PYMODULE'),
  ('PIL.Image', '/usr/lib/python2.7/dist-packages/PIL/Image.py', 'PYMODULE'),
  ('PIL.SunImagePlugin',
   '/usr/lib/python2.7/dist-packages/PIL/SunImagePlugin.py',
   'PYMODULE'),
  ('PIL.ImageFile',
   '/usr/lib/python2.7/dist-packages/PIL/ImageFile.py',
   'PYMODULE'),
  ('PIL.IptcImagePlugin',
   '/usr/lib/python2.7/dist-packages/PIL/IptcImagePlugin.py',
   'PYMODULE'),
  ('PIL.McIdasImagePlugin',
   '/usr/lib/python2.7/dist-packages/PIL/McIdasImagePlugin.py',
   'PYMODULE'),
  ('PIL.MpegImagePlugin',
   '/usr/lib/python2.7/dist-packages/PIL/MpegImagePlugin.py',
   'PYMODULE'),
  ('PIL.IcnsImagePlugin',
   '/usr/lib/python2.7/dist-packages/PIL/IcnsImagePlugin.py',
   'PYMODULE'),
  ('PIL.TiffImagePlugin',
   '/usr/lib/python2.7/dist-packages/PIL/TiffImagePlugin.py',
   'PYMODULE'),
  ('fractions', '/usr/lib/python2.7/fractions.py', 'PYMODULE'),
  ('PIL.TiffTags',
   '/usr/lib/python2.7/dist-packages/PIL/TiffTags.py',
   'PYMODULE'),
  ('PIL.FpxImagePlugin',
   '/usr/lib/python2.7/dist-packages/PIL/FpxImagePlugin.py',
   'PYMODULE'),
  ('PIL.OleFileIO',
   '/usr/lib/python2.7/dist-packages/PIL/OleFileIO.py',
   'PYMODULE'),
  ('PIL.TgaImagePlugin',
   '/usr/lib/python2.7/dist-packages/PIL/TgaImagePlugin.py',
   'PYMODULE'),
  ('PIL.FliImagePlugin',
   '/usr/lib/python2.7/dist-packages/PIL/FliImagePlugin.py',
   'PYMODULE'),
  ('PIL.PixarImagePlugin',
   '/usr/lib/python2.7/dist-packages/PIL/PixarImagePlugin.py',
   'PYMODULE'),
  ('PIL.PcxImagePlugin',
   '/usr/lib/python2.7/dist-packages/PIL/PcxImagePlugin.py',
   'PYMODULE'),
  ('PIL.XVThumbImagePlugin',
   '/usr/lib/python2.7/dist-packages/PIL/XVThumbImagePlugin.py',
   'PYMODULE'),
  ('PIL.GbrImagePlugin',
   '/usr/lib/python2.7/dist-packages/PIL/GbrImagePlugin.py',
   'PYMODULE'),
  ('PIL.WebPImagePlugin',
   '/usr/lib/python2.7/dist-packages/PIL/WebPImagePlugin.py',
   'PYMODULE'),
  ('PIL.XpmImagePlugin',
   '/usr/lib/python2.7/dist-packages/PIL/XpmImagePlugin.py',
   'PYMODULE'),
  ('PIL.MspImagePlugin',
   '/usr/lib/python2.7/dist-packages/PIL/MspImagePlugin.py',
   'PYMODULE'),
  ('PIL.GribStubImagePlugin',
   '/usr/lib/python2.7/dist-packages/PIL/GribStubImagePlugin.py',
   'PYMODULE'),
  ('PIL.PcdImagePlugin',
   '/usr/lib/python2.7/dist-packages/PIL/PcdImagePlugin.py',
   'PYMODULE'),
  ('PIL.WmfImagePlugin',
   '/usr/lib/python2.7/dist-packages/PIL/WmfImagePlugin.py',
   'PYMODULE'),
  ('PIL.PsdImagePlugin',
   '/usr/lib/python2.7/dist-packages/PIL/PsdImagePlugin.py',
   'PYMODULE'),
  ('PIL.SpiderImagePlugin',
   '/usr/lib/python2.7/dist-packages/PIL/SpiderImagePlugin.py',
   'PYMODULE'),
  ('PIL.CurImagePlugin',
   '/usr/lib/python2.7/dist-packages/PIL/CurImagePlugin.py',
   'PYMODULE'),
  ('PIL.BufrStubImagePlugin',
   '/usr/lib/python2.7/dist-packages/PIL/BufrStubImagePlugin.py',
   'PYMODULE'),
  ('PIL.FitsStubImagePlugin',
   '/usr/lib/python2.7/dist-packages/PIL/FitsStubImagePlugin.py',
   'PYMODULE'),
  ('PIL.PdfImagePlugin',
   '/usr/lib/python2.7/dist-packages/PIL/PdfImagePlugin.py',
   'PYMODULE'),
  ('PIL.DcxImagePlugin',
   '/usr/lib/python2.7/dist-packages/PIL/DcxImagePlugin.py',
   'PYMODULE'),
  ('PIL.IcoImagePlugin',
   '/usr/lib/python2.7/dist-packages/PIL/IcoImagePlugin.py',
   'PYMODULE'),
  ('PIL.SgiImagePlugin',
   '/usr/lib/python2.7/dist-packages/PIL/SgiImagePlugin.py',
   'PYMODULE'),
  ('PIL.ImImagePlugin',
   '/usr/lib/python2.7/dist-packages/PIL/ImImagePlugin.py',
   'PYMODULE'),
  ('PIL.Hdf5StubImagePlugin',
   '/usr/lib/python2.7/dist-packages/PIL/Hdf5StubImagePlugin.py',
   'PYMODULE'),
  ('PIL.XbmImagePlugin',
   '/usr/lib/python2.7/dist-packages/PIL/XbmImagePlugin.py',
   'PYMODULE'),
  ('PIL.EpsImagePlugin',
   '/usr/lib/python2.7/dist-packages/PIL/EpsImagePlugin.py',
   'PYMODULE'),
  ('PIL.MpoImagePlugin',
   '/usr/lib/python2.7/dist-packages/PIL/MpoImagePlugin.py',
   'PYMODULE'),
  ('PIL.ImtImagePlugin',
   '/usr/lib/python2.7/dist-packages/PIL/ImtImagePlugin.py',
   'PYMODULE'),
  ('PIL.MicImagePlugin',
   '/usr/lib/python2.7/dist-packages/PIL/MicImagePlugin.py',
   'PYMODULE'),
  ('PIL.Jpeg2KImagePlugin',
   '/usr/lib/python2.7/dist-packages/PIL/Jpeg2KImagePlugin.py',
   'PYMODULE'),
  ('PIL.PalmImagePlugin',
   '/usr/lib/python2.7/dist-packages/PIL/PalmImagePlugin.py',
   'PYMODULE'),
  ('PIL.ImageShow',
   '/usr/lib/python2.7/dist-packages/PIL/ImageShow.py',
   'PYMODULE'),
  ('pipes', '/usr/lib/python2.7/pipes.py', 'PYMODULE'),
  ('PIL.ImageQt',
   '/usr/lib/python2.7/dist-packages/PIL/ImageQt.py',
   'PYMODULE'),
  ('PIL.ImageColor',
   '/usr/lib/python2.7/dist-packages/PIL/ImageColor.py',
   'PYMODULE'),
  ('colorsys', '/usr/lib/python2.7/colorsys.py', 'PYMODULE'),
  ('PIL.PyAccess',
   '/usr/lib/python2.7/dist-packages/PIL/PyAccess.py',
   'PYMODULE'),
  ('PIL.ImagePalette',
   '/usr/lib/python2.7/dist-packages/PIL/ImagePalette.py',
   'PYMODULE'),
  ('PIL.PaletteFile',
   '/usr/lib/python2.7/dist-packages/PIL/PaletteFile.py',
   'PYMODULE'),
  ('PIL.GimpGradientFile',
   '/usr/lib/python2.7/dist-packages/PIL/GimpGradientFile.py',
   'PYMODULE'),
  ('PIL.GimpPaletteFile',
   '/usr/lib/python2.7/dist-packages/PIL/GimpPaletteFile.py',
   'PYMODULE'),
  ('PIL.PngImagePlugin',
   '/usr/lib/python2.7/dist-packages/PIL/PngImagePlugin.py',
   'PYMODULE'),
  ('PIL.PpmImagePlugin',
   '/usr/lib/python2.7/dist-packages/PIL/PpmImagePlugin.py',
   'PYMODULE'),
  ('PIL.JpegImagePlugin',
   '/usr/lib/python2.7/dist-packages/PIL/JpegImagePlugin.py',
   'PYMODULE'),
  ('PIL.JpegPresets',
   '/usr/lib/python2.7/dist-packages/PIL/JpegPresets.py',
   'PYMODULE'),
  ('PIL.GifImagePlugin',
   '/usr/lib/python2.7/dist-packages/PIL/GifImagePlugin.py',
   'PYMODULE'),
  ('PIL.ImageSequence',
   '/usr/lib/python2.7/dist-packages/PIL/ImageSequence.py',
   'PYMODULE'),
  ('PIL.ImageChops',
   '/usr/lib/python2.7/dist-packages/PIL/ImageChops.py',
   'PYMODULE'),
  ('PIL.BmpImagePlugin',
   '/usr/lib/python2.7/dist-packages/PIL/BmpImagePlugin.py',
   'PYMODULE'),
  ('PIL._util', '/usr/lib/python2.7/dist-packages/PIL/_util.py', 'PYMODULE'),
  ('PIL._binary',
   '/usr/lib/python2.7/dist-packages/PIL/_binary.py',
   'PYMODULE'),
  ('PIL.ImageMode',
   '/usr/lib/python2.7/dist-packages/PIL/ImageMode.py',
   'PYMODULE'),
  ('PIL', '/usr/lib/python2.7/dist-packages/PIL/__init__.py', 'PYMODULE'),
  ('django.utils.ipv6',
   '/usr/lib/python2.7/dist-packages/django/utils/ipv6.py',
   'PYMODULE'),
  ('django.db.models.fields.files',
   '/usr/lib/python2.7/dist-packages/django/db/models/fields/files.py',
   'PYMODULE'),
  ('django.core.files.storage',
   '/usr/lib/python2.7/dist-packages/django/core/files/storage.py',
   'PYMODULE'),
  ('django.utils.deconstruct',
   '/usr/lib/python2.7/dist-packages/django/utils/deconstruct.py',
   'PYMODULE'),
  ('django.core.files.move',
   '/usr/lib/python2.7/dist-packages/django/core/files/move.py',
   'PYMODULE'),
  ('django.core.files.images',
   '/usr/lib/python2.7/dist-packages/django/core/files/images.py',
   'PYMODULE'),
  ('django.db.models.fields.subclassing',
   '/usr/lib/python2.7/dist-packages/django/db/models/fields/subclassing.py',
   'PYMODULE'),
  ('django.db.models.aggregates',
   '/usr/lib/python2.7/dist-packages/django/db/models/aggregates.py',
   'PYMODULE'),
  ('django.db.models.base',
   '/usr/lib/python2.7/dist-packages/django/db/models/base.py',
   'PYMODULE'),
  ('django.db.models.manager',
   '/usr/lib/python2.7/dist-packages/django/db/models/manager.py',
   'PYMODULE'),
  ('django.db.models.expressions',
   '/usr/lib/python2.7/dist-packages/django/db/models/expressions.py',
   'PYMODULE'),
  ('django.db.models.query',
   '/usr/lib/python2.7/dist-packages/django/db/models/query.py',
   'PYMODULE'),
  ('django.db.models.sql',
   '/usr/lib/python2.7/dist-packages/django/db/models/sql/__init__.py',
   'PYMODULE'),
  ('django.db.models.fields',
   '/usr/lib/python2.7/dist-packages/django/db/models/fields/__init__.py',
   'PYMODULE'),
  ('django.db.models.signals',
   '/usr/lib/python2.7/dist-packages/django/db/models/signals.py',
   'PYMODULE'),
  ('django.db',
   '/usr/lib/python2.7/dist-packages/django/db/__init__.py',
   'PYMODULE'),
  ('django.core.checks.compatibility.django_1_8_0',
   '/usr/lib/python2.7/dist-packages/django/core/checks/compatibility/django_1_8_0.py',
   'PYMODULE'),
  ('django.core.checks.compatibility',
   '/usr/lib/python2.7/dist-packages/django/core/checks/compatibility/__init__.py',
   'PYMODULE'),
  ('django.conf.global_settings',
   '/usr/lib/python2.7/dist-packages/django/conf/global_settings.py',
   'PYMODULE'),
  ('django.core.checks.compatibility.django_1_7_0',
   '/usr/lib/python2.7/dist-packages/django/core/checks/compatibility/django_1_7_0.py',
   'PYMODULE'),
  ('django.core.checks.registry',
   '/usr/lib/python2.7/dist-packages/django/core/checks/registry.py',
   'PYMODULE'),
  ('django.core.checks.messages',
   '/usr/lib/python2.7/dist-packages/django/core/checks/messages.py',
   'PYMODULE'),
  ('django.core.validators',
   '/usr/lib/python2.7/dist-packages/django/core/validators.py',
   'PYMODULE'),
  ('django.core.signing',
   '/usr/lib/python2.7/dist-packages/django/core/signing.py',
   'PYMODULE'),
  ('django.utils.baseconv',
   '/usr/lib/python2.7/dist-packages/django/utils/baseconv.py',
   'PYMODULE'),
  ('django.core.mail',
   '/usr/lib/python2.7/dist-packages/django/core/mail/__init__.py',
   'PYMODULE'),
  ('email.mime.audio', '/usr/lib/python2.7/email/mime/audio.py', 'PYMODULE'),
  ('email.mime.nonmultipart',
   '/usr/lib/python2.7/email/mime/nonmultipart.py',
   'PYMODULE'),
  ('email.mime.base', '/usr/lib/python2.7/email/mime/base.py', 'PYMODULE'),
  ('sndhdr', '/usr/lib/python2.7/sndhdr.py', 'PYMODULE'),
  ('glob', '/usr/lib/python2.7/glob.py', 'PYMODULE'),
  ('aifc', '/usr/lib/python2.7/aifc.py', 'PYMODULE'),
  ('chunk', '/usr/lib/python2.7/chunk.py', 'PYMODULE'),
  ('email.mime.multipart',
   '/usr/lib/python2.7/email/mime/multipart.py',
   'PYMODULE'),
  ('email.mime.text', '/usr/lib/python2.7/email/mime/text.py', 'PYMODULE'),
  ('email.mime.image', '/usr/lib/python2.7/email/mime/image.py', 'PYMODULE'),
  ('imghdr', '/usr/lib/python2.7/imghdr.py', 'PYMODULE'),
  ('email.mime.message',
   '/usr/lib/python2.7/email/mime/message.py',
   'PYMODULE'),
  ('django.core.mail.message',
   '/usr/lib/python2.7/dist-packages/django/core/mail/message.py',
   'PYMODULE'),
  ('django.core.mail.utils',
   '/usr/lib/python2.7/dist-packages/django/core/mail/utils.py',
   'PYMODULE'),
  ('django.conf.locale',
   '/usr/lib/python2.7/dist-packages/django/conf/locale/__init__.py',
   'PYMODULE'),
  ('django.utils.translation',
   '/usr/lib/python2.7/dist-packages/django/utils/translation/__init__.py',
   'PYMODULE'),
  ('django.utils.translation.trans_null',
   '/usr/lib/python2.7/dist-packages/django/utils/translation/trans_null.py',
   'PYMODULE'),
  ('django.utils._os',
   '/usr/lib/python2.7/dist-packages/django/utils/_os.py',
   'PYMODULE'),
  ('django.utils.six',
   '/usr/lib/python2.7/dist-packages/django/utils/six.py',
   'PYMODULE'),
  ('django.utils',
   '/usr/lib/python2.7/dist-packages/django/utils/__init__.py',
   'PYMODULE'),
  ('django.utils.archive',
   '/usr/lib/python2.7/dist-packages/django/utils/archive.py',
   'PYMODULE'),
  ('django.core.signals',
   '/usr/lib/python2.7/dist-packages/django/core/signals.py',
   'PYMODULE'),
  ('django.conf',
   '/usr/lib/python2.7/dist-packages/django/conf/__init__.py',
   'PYMODULE'),
  ('django.apps',
   '/usr/lib/python2.7/dist-packages/django/apps/__init__.py',
   'PYMODULE'),
  ('encodings.aliases',
   '/usr/lib/python2.7/encodings/aliases.py',
   'PYMODULE'),
  ('encodings', '/usr/lib/python2.7/encodings/__init__.py', 'PYMODULE'),
  ('encodings.idna', '/usr/lib/python2.7/encodings/idna.py', 'PYMODULE'),
  ('stringprep', '/usr/lib/python2.7/stringprep.py', 'PYMODULE'),
  ('encodings.mbcs', '/usr/lib/python2.7/encodings/mbcs.py', 'PYMODULE'),
  ('encodings.raw_unicode_escape',
   '/usr/lib/python2.7/encodings/raw_unicode_escape.py',
   'PYMODULE'),
  ('encodings.gb18030',
   '/usr/lib/python2.7/encodings/gb18030.py',
   'PYMODULE'),
  ('encodings.shift_jisx0213',
   '/usr/lib/python2.7/encodings/shift_jisx0213.py',
   'PYMODULE'),
  ('encodings.ascii', '/usr/lib/python2.7/encodings/ascii.py', 'PYMODULE'),
  ('encodings.cp861', '/usr/lib/python2.7/encodings/cp861.py', 'PYMODULE'),
  ('encodings.cp860', '/usr/lib/python2.7/encodings/cp860.py', 'PYMODULE'),
  ('encodings.cp863', '/usr/lib/python2.7/encodings/cp863.py', 'PYMODULE'),
  ('encodings.cp862', '/usr/lib/python2.7/encodings/cp862.py', 'PYMODULE'),
  ('encodings.cp865', '/usr/lib/python2.7/encodings/cp865.py', 'PYMODULE'),
  ('encodings.big5hkscs',
   '/usr/lib/python2.7/encodings/big5hkscs.py',
   'PYMODULE'),
  ('encodings.cp866', '/usr/lib/python2.7/encodings/cp866.py', 'PYMODULE'),
  ('encodings.cp869', '/usr/lib/python2.7/encodings/cp869.py', 'PYMODULE'),
  ('encodings.mac_latin2',
   '/usr/lib/python2.7/encodings/mac_latin2.py',
   'PYMODULE'),
  ('encodings.hex_codec',
   '/usr/lib/python2.7/encodings/hex_codec.py',
   'PYMODULE'),
  ('encodings.cp950', '/usr/lib/python2.7/encodings/cp950.py', 'PYMODULE'),
  ('encodings.quopri_codec',
   '/usr/lib/python2.7/encodings/quopri_codec.py',
   'PYMODULE'),
  ('encodings.utf_32_be',
   '/usr/lib/python2.7/encodings/utf_32_be.py',
   'PYMODULE'),
  ('encodings.string_escape',
   '/usr/lib/python2.7/encodings/string_escape.py',
   'PYMODULE'),
  ('encodings.cp1250', '/usr/lib/python2.7/encodings/cp1250.py', 'PYMODULE'),
  ('encodings.cp1251', '/usr/lib/python2.7/encodings/cp1251.py', 'PYMODULE'),
  ('encodings.cp1252', '/usr/lib/python2.7/encodings/cp1252.py', 'PYMODULE'),
  ('encodings.cp1253', '/usr/lib/python2.7/encodings/cp1253.py', 'PYMODULE'),
  ('encodings.cp1254', '/usr/lib/python2.7/encodings/cp1254.py', 'PYMODULE'),
  ('encodings.cp1255', '/usr/lib/python2.7/encodings/cp1255.py', 'PYMODULE'),
  ('encodings.cp1256', '/usr/lib/python2.7/encodings/cp1256.py', 'PYMODULE'),
  ('encodings.cp1257', '/usr/lib/python2.7/encodings/cp1257.py', 'PYMODULE'),
  ('encodings.cp1258', '/usr/lib/python2.7/encodings/cp1258.py', 'PYMODULE'),
  ('encodings.euc_jp', '/usr/lib/python2.7/encodings/euc_jp.py', 'PYMODULE'),
  ('encodings.hz', '/usr/lib/python2.7/encodings/hz.py', 'PYMODULE'),
  ('encodings.mac_cyrillic',
   '/usr/lib/python2.7/encodings/mac_cyrillic.py',
   'PYMODULE'),
  ('encodings.iso2022_kr',
   '/usr/lib/python2.7/encodings/iso2022_kr.py',
   'PYMODULE'),
  ('encodings.unicode_internal',
   '/usr/lib/python2.7/encodings/unicode_internal.py',
   'PYMODULE'),
  ('encodings.cp500', '/usr/lib/python2.7/encodings/cp500.py', 'PYMODULE'),
  ('encodings.iso8859_10',
   '/usr/lib/python2.7/encodings/iso8859_10.py',
   'PYMODULE'),
  ('encodings.iso8859_11',
   '/usr/lib/python2.7/encodings/iso8859_11.py',
   'PYMODULE'),
  ('encodings.iso8859_13',
   '/usr/lib/python2.7/encodings/iso8859_13.py',
   'PYMODULE'),
  ('encodings.iso8859_14',
   '/usr/lib/python2.7/encodings/iso8859_14.py',
   'PYMODULE'),
  ('encodings.cp424', '/usr/lib/python2.7/encodings/cp424.py', 'PYMODULE'),
  ('encodings.iso8859_16',
   '/usr/lib/python2.7/encodings/iso8859_16.py',
   'PYMODULE'),
  ('encodings.cp1006', '/usr/lib/python2.7/encodings/cp1006.py', 'PYMODULE'),
  ('encodings.hp_roman8',
   '/usr/lib/python2.7/encodings/hp_roman8.py',
   'PYMODULE'),
  ('encodings.charmap',
   '/usr/lib/python2.7/encodings/charmap.py',
   'PYMODULE'),
  ('encodings.utf_32', '/usr/lib/python2.7/encodings/utf_32.py', 'PYMODULE'),
  ('encodings.latin_1',
   '/usr/lib/python2.7/encodings/latin_1.py',
   'PYMODULE'),
  ('encodings.utf_16_be',
   '/usr/lib/python2.7/encodings/utf_16_be.py',
   'PYMODULE'),
  ('encodings.cp737', '/usr/lib/python2.7/encodings/cp737.py', 'PYMODULE'),
  ('encodings.utf_16', '/usr/lib/python2.7/encodings/utf_16.py', 'PYMODULE'),
  ('encodings.cp437', '/usr/lib/python2.7/encodings/cp437.py', 'PYMODULE'),
  ('encodings.mac_roman',
   '/usr/lib/python2.7/encodings/mac_roman.py',
   'PYMODULE'),
  ('encodings.mac_centeuro',
   '/usr/lib/python2.7/encodings/mac_centeuro.py',
   'PYMODULE'),
  ('encodings.mac_croatian',
   '/usr/lib/python2.7/encodings/mac_croatian.py',
   'PYMODULE'),
  ('encodings.punycode',
   '/usr/lib/python2.7/encodings/punycode.py',
   'PYMODULE'),
  ('encodings.unicode_escape',
   '/usr/lib/python2.7/encodings/unicode_escape.py',
   'PYMODULE'),
  ('encodings.bz2_codec',
   '/usr/lib/python2.7/encodings/bz2_codec.py',
   'PYMODULE'),
  ('encodings.rot_13', '/usr/lib/python2.7/encodings/rot_13.py', 'PYMODULE'),
  ('encodings.cp874', '/usr/lib/python2.7/encodings/cp874.py', 'PYMODULE'),
  ('encodings.cp875', '/usr/lib/python2.7/encodings/cp875.py', 'PYMODULE'),
  ('encodings.cp720', '/usr/lib/python2.7/encodings/cp720.py', 'PYMODULE'),
  ('encodings.tis_620',
   '/usr/lib/python2.7/encodings/tis_620.py',
   'PYMODULE'),
  ('encodings.zlib_codec',
   '/usr/lib/python2.7/encodings/zlib_codec.py',
   'PYMODULE'),
  ('encodings.iso2022_jp_2004',
   '/usr/lib/python2.7/encodings/iso2022_jp_2004.py',
   'PYMODULE'),
  ('encodings.euc_jisx0213',
   '/usr/lib/python2.7/encodings/euc_jisx0213.py',
   'PYMODULE'),
  ('encodings.ptcp154',
   '/usr/lib/python2.7/encodings/ptcp154.py',
   'PYMODULE'),
  ('encodings.uu_codec',
   '/usr/lib/python2.7/encodings/uu_codec.py',
   'PYMODULE'),
  ('encodings.utf_16_le',
   '/usr/lib/python2.7/encodings/utf_16_le.py',
   'PYMODULE'),
  ('encodings.iso2022_jp_2',
   '/usr/lib/python2.7/encodings/iso2022_jp_2.py',
   'PYMODULE'),
  ('encodings.iso2022_jp_3',
   '/usr/lib/python2.7/encodings/iso2022_jp_3.py',
   'PYMODULE'),
  ('encodings.iso2022_jp_1',
   '/usr/lib/python2.7/encodings/iso2022_jp_1.py',
   'PYMODULE'),
  ('encodings.mac_romanian',
   '/usr/lib/python2.7/encodings/mac_romanian.py',
   'PYMODULE'),
  ('encodings.cp1026', '/usr/lib/python2.7/encodings/cp1026.py', 'PYMODULE'),
  ('encodings.mac_farsi',
   '/usr/lib/python2.7/encodings/mac_farsi.py',
   'PYMODULE'),
  ('encodings.undefined',
   '/usr/lib/python2.7/encodings/undefined.py',
   'PYMODULE'),
  ('encodings.mac_turkish',
   '/usr/lib/python2.7/encodings/mac_turkish.py',
   'PYMODULE'),
  ('encodings.koi8_u', '/usr/lib/python2.7/encodings/koi8_u.py', 'PYMODULE'),
  ('encodings.koi8_r', '/usr/lib/python2.7/encodings/koi8_r.py', 'PYMODULE'),
  ('encodings.utf_8_sig',
   '/usr/lib/python2.7/encodings/utf_8_sig.py',
   'PYMODULE'),
  ('encodings.iso2022_jp',
   '/usr/lib/python2.7/encodings/iso2022_jp.py',
   'PYMODULE'),
  ('encodings.palmos', '/usr/lib/python2.7/encodings/palmos.py', 'PYMODULE'),
  ('encodings.mac_greek',
   '/usr/lib/python2.7/encodings/mac_greek.py',
   'PYMODULE'),
  ('encodings.shift_jis_2004',
   '/usr/lib/python2.7/encodings/shift_jis_2004.py',
   'PYMODULE'),
  ('encodings.gbk', '/usr/lib/python2.7/encodings/gbk.py', 'PYMODULE'),
  ('encodings.mac_iceland',
   '/usr/lib/python2.7/encodings/mac_iceland.py',
   'PYMODULE'),
  ('encodings.cp858', '/usr/lib/python2.7/encodings/cp858.py', 'PYMODULE'),
  ('encodings.cp850', '/usr/lib/python2.7/encodings/cp850.py', 'PYMODULE'),
  ('encodings.cp852', '/usr/lib/python2.7/encodings/cp852.py', 'PYMODULE'),
  ('encodings.cp855', '/usr/lib/python2.7/encodings/cp855.py', 'PYMODULE'),
  ('encodings.cp856', '/usr/lib/python2.7/encodings/cp856.py', 'PYMODULE'),
  ('encodings.cp857', '/usr/lib/python2.7/encodings/cp857.py', 'PYMODULE'),
  ('encodings.iso8859_4',
   '/usr/lib/python2.7/encodings/iso8859_4.py',
   'PYMODULE'),
  ('encodings.iso8859_5',
   '/usr/lib/python2.7/encodings/iso8859_5.py',
   'PYMODULE'),
  ('encodings.iso8859_6',
   '/usr/lib/python2.7/encodings/iso8859_6.py',
   'PYMODULE'),
  ('encodings.iso8859_7',
   '/usr/lib/python2.7/encodings/iso8859_7.py',
   'PYMODULE'),
  ('encodings.iso8859_1',
   '/usr/lib/python2.7/encodings/iso8859_1.py',
   'PYMODULE'),
  ('encodings.iso8859_2',
   '/usr/lib/python2.7/encodings/iso8859_2.py',
   'PYMODULE'),
  ('encodings.iso8859_3',
   '/usr/lib/python2.7/encodings/iso8859_3.py',
   'PYMODULE'),
  ('encodings.gb2312', '/usr/lib/python2.7/encodings/gb2312.py', 'PYMODULE'),
  ('encodings.iso8859_8',
   '/usr/lib/python2.7/encodings/iso8859_8.py',
   'PYMODULE'),
  ('encodings.iso8859_9',
   '/usr/lib/python2.7/encodings/iso8859_9.py',
   'PYMODULE'),
  ('encodings.cp949', '/usr/lib/python2.7/encodings/cp949.py', 'PYMODULE'),
  ('encodings.cp864', '/usr/lib/python2.7/encodings/cp864.py', 'PYMODULE'),
  ('encodings.base64_codec',
   '/usr/lib/python2.7/encodings/base64_codec.py',
   'PYMODULE'),
  ('encodings.cp037', '/usr/lib/python2.7/encodings/cp037.py', 'PYMODULE'),
  ('encodings.utf_8', '/usr/lib/python2.7/encodings/utf_8.py', 'PYMODULE'),
  ('encodings.mac_arabic',
   '/usr/lib/python2.7/encodings/mac_arabic.py',
   'PYMODULE'),
  ('encodings.euc_kr', '/usr/lib/python2.7/encodings/euc_kr.py', 'PYMODULE'),
  ('encodings.utf_7', '/usr/lib/python2.7/encodings/utf_7.py', 'PYMODULE'),
  ('encodings.shift_jis',
   '/usr/lib/python2.7/encodings/shift_jis.py',
   'PYMODULE'),
  ('encodings.utf_32_le',
   '/usr/lib/python2.7/encodings/utf_32_le.py',
   'PYMODULE'),
  ('encodings.euc_jis_2004',
   '/usr/lib/python2.7/encodings/euc_jis_2004.py',
   'PYMODULE'),
  ('encodings.cp775', '/usr/lib/python2.7/encodings/cp775.py', 'PYMODULE'),
  ('encodings.cp1140', '/usr/lib/python2.7/encodings/cp1140.py', 'PYMODULE'),
  ('encodings.big5', '/usr/lib/python2.7/encodings/big5.py', 'PYMODULE'),
  ('encodings.iso8859_15',
   '/usr/lib/python2.7/encodings/iso8859_15.py',
   'PYMODULE'),
  ('encodings.iso2022_jp_ext',
   '/usr/lib/python2.7/encodings/iso2022_jp_ext.py',
   'PYMODULE'),
  ('encodings.johab', '/usr/lib/python2.7/encodings/johab.py', 'PYMODULE'),
  ('encodings.cp932', '/usr/lib/python2.7/encodings/cp932.py', 'PYMODULE'),
  ('codecs', '/usr/lib/python2.7/codecs.py', 'PYMODULE'),
  ('django',
   '/usr/lib/python2.7/dist-packages/django/__init__.py',
   'PYMODULE'),
  ('HTMLParser', '/usr/lib/python2.7/HTMLParser.py', 'PYMODULE'),
  ('htmlentitydefs', '/usr/lib/python2.7/htmlentitydefs.py', 'PYMODULE'),
  ('markupbase', '/usr/lib/python2.7/markupbase.py', 'PYMODULE'),
  ('Cookie', '/usr/lib/python2.7/Cookie.py', 'PYMODULE'),
  ('django.templatetags.i18n',
   '/usr/lib/python2.7/dist-packages/django/templatetags/i18n.py',
   'PYMODULE'),
  ('django.templatetags.static',
   '/usr/lib/python2.7/dist-packages/django/templatetags/static.py',
   'PYMODULE'),
  ('django.templatetags.cache',
   '/usr/lib/python2.7/dist-packages/django/templatetags/cache.py',
   'PYMODULE'),
  ('django.core.cache.utils',
   '/usr/lib/python2.7/dist-packages/django/core/cache/utils.py',
   'PYMODULE'),
  ('django.core.cache',
   '/usr/lib/python2.7/dist-packages/django/core/cache/__init__.py',
   'PYMODULE'),
  ('django.core.cache.backends.base',
   '/usr/lib/python2.7/dist-packages/django/core/cache/backends/base.py',
   'PYMODULE'),
  ('django.core.cache.backends',
   '/usr/lib/python2.7/dist-packages/django/core/cache/backends/__init__.py',
   'PYMODULE'),
  ('django.templatetags.tz',
   '/usr/lib/python2.7/dist-packages/django/templatetags/tz.py',
   'PYMODULE'),
  ('django.templatetags.future',
   '/usr/lib/python2.7/dist-packages/django/templatetags/future.py',
   'PYMODULE'),
  ('django.templatetags',
   '/usr/lib/python2.7/dist-packages/django/templatetags/__init__.py',
   'PYMODULE'),
  ('django.templatetags.l10n',
   '/usr/lib/python2.7/dist-packages/django/templatetags/l10n.py',
   'PYMODULE'),
  ('django.middleware.http',
   '/usr/lib/python2.7/dist-packages/django/middleware/http.py',
   'PYMODULE'),
  ('django.middleware',
   '/usr/lib/python2.7/dist-packages/django/middleware/__init__.py',
   'PYMODULE'),
  ('django.middleware.locale',
   '/usr/lib/python2.7/dist-packages/django/middleware/locale.py',
   'PYMODULE'),
  ('django.utils.cache',
   '/usr/lib/python2.7/dist-packages/django/utils/cache.py',
   'PYMODULE'),
  ('django.middleware.cache',
   '/usr/lib/python2.7/dist-packages/django/middleware/cache.py',
   'PYMODULE'),
  ('django.middleware.gzip',
   '/usr/lib/python2.7/dist-packages/django/middleware/gzip.py',
   'PYMODULE'),
  ('django.template.context_processors',
   '/usr/lib/python2.7/dist-packages/django/template/context_processors.py',
   'PYMODULE'),
  ('django.template.loader_tags',
   '/usr/lib/python2.7/dist-packages/django/template/loader_tags.py',
   'PYMODULE'),
  ('django.template.defaulttags',
   '/usr/lib/python2.7/dist-packages/django/template/defaulttags.py',
   'PYMODULE'),
  ('django.utils.lorem_ipsum',
   '/usr/lib/python2.7/dist-packages/django/utils/lorem_ipsum.py',
   'PYMODULE'),
  ('django.template.smartif',
   '/usr/lib/python2.7/dist-packages/django/template/smartif.py',
   'PYMODULE'),
  ('mysite.wsgi',
   '/home/allan/trackproj/trackproj/mysite/wsgi.py',
   'PYMODULE'),
  ('mysite',
   '/home/allan/trackproj/trackproj/mysite/__init__.py',
   'PYMODULE'),
  ('django.core.wsgi',
   '/usr/lib/python2.7/dist-packages/django/core/wsgi.py',
   'PYMODULE'),
  ('django.core.handlers.wsgi',
   '/usr/lib/python2.7/dist-packages/django/core/handlers/wsgi.py',
   'PYMODULE'),
  ('django.core.handlers.base',
   '/usr/lib/python2.7/dist-packages/django/core/handlers/base.py',
   'PYMODULE'),
  ('django.core.handlers',
   '/usr/lib/python2.7/dist-packages/django/core/handlers/__init__.py',
   'PYMODULE'),
  ('mysite.settings',
   '/home/allan/trackproj/trackproj/mysite/settings.py',
   'PYMODULE'),
  ('django.contrib.admin.options',
   '/usr/lib/python2.7/dist-packages/django/contrib/admin/options.py',
   'PYMODULE'),
  ('django.contrib.admin.models',
   '/usr/lib/python2.7/dist-packages/django/contrib/admin/models.py',
   'PYMODULE'),
  ('django.contrib.admin.views.main',
   '/usr/lib/python2.7/dist-packages/django/contrib/admin/views/main.py',
   'PYMODULE'),
  ('django.contrib.admin.views',
   '/usr/lib/python2.7/dist-packages/django/contrib/admin/views/__init__.py',
   'PYMODULE'),
  ('django.views.decorators.csrf',
   '/usr/lib/python2.7/dist-packages/django/views/decorators/csrf.py',
   'PYMODULE'),
  ('django.views.decorators',
   '/usr/lib/python2.7/dist-packages/django/views/decorators/__init__.py',
   'PYMODULE'),
  ('django.template.response',
   '/usr/lib/python2.7/dist-packages/django/template/response.py',
   'PYMODULE'),
  ('django.core.paginator',
   '/usr/lib/python2.7/dist-packages/django/core/paginator.py',
   'PYMODULE'),
  ('django.contrib.admin.utils',
   '/usr/lib/python2.7/dist-packages/django/contrib/admin/utils.py',
   'PYMODULE'),
  ('django.contrib.admin.validation',
   '/usr/lib/python2.7/dist-packages/django/contrib/admin/validation.py',
   'PYMODULE'),
  ('django.contrib.admin.widgets',
   '/usr/lib/python2.7/dist-packages/django/contrib/admin/widgets.py',
   'PYMODULE'),
  ('django.contrib',
   '/usr/lib/python2.7/dist-packages/django/contrib/__init__.py',
   'PYMODULE'),
  ('django.contrib.admin.templatetags.admin_modify',
   '/usr/lib/python2.7/dist-packages/django/contrib/admin/templatetags/admin_modify.py',
   'PYMODULE'),
  ('django.contrib.auth.checks',
   '/usr/lib/python2.7/dist-packages/django/contrib/auth/checks.py',
   'PYMODULE'),
  ('django.contrib.auth.forms',
   '/usr/lib/python2.7/dist-packages/django/contrib/auth/forms.py',
   'PYMODULE'),
  ('django.contrib.sites.shortcuts',
   '/usr/lib/python2.7/dist-packages/django/contrib/sites/shortcuts.py',
   'PYMODULE'),
  ('django.contrib.sites.requests',
   '/usr/lib/python2.7/dist-packages/django/contrib/sites/requests.py',
   'PYMODULE'),
  ('django.contrib.sites.models',
   '/usr/lib/python2.7/dist-packages/django/contrib/sites/models.py',
   'PYMODULE'),
  ('django.contrib.sites',
   '/usr/lib/python2.7/dist-packages/django/contrib/sites/__init__.py',
   'PYMODULE'),
  ('django.contrib.auth.tokens',
   '/usr/lib/python2.7/dist-packages/django/contrib/auth/tokens.py',
   'PYMODULE'),
  ('django.contrib.auth.models',
   '/usr/lib/python2.7/dist-packages/django/contrib/auth/models.py',
   'PYMODULE'),
  ('django.contrib.auth.signals',
   '/usr/lib/python2.7/dist-packages/django/contrib/auth/signals.py',
   'PYMODULE'),
  ('django.contrib.auth.hashers',
   '/usr/lib/python2.7/dist-packages/django/contrib/auth/hashers.py',
   'PYMODULE'),
  ('django.contrib.auth.handlers',
   '/usr/lib/python2.7/dist-packages/django/contrib/auth/handlers/__init__.py',
   'PYMODULE'),
  ('django.contrib.auth.apps',
   '/usr/lib/python2.7/dist-packages/django/contrib/auth/apps.py',
   'PYMODULE'),
  ('django.contrib.auth.management',
   '/usr/lib/python2.7/dist-packages/django/contrib/auth/management/__init__.py',
   'PYMODULE'),
  ('django.contrib.auth.decorators',
   '/usr/lib/python2.7/dist-packages/django/contrib/auth/decorators.py',
   'PYMODULE'),
  ('django.contrib.auth.views',
   '/usr/lib/python2.7/dist-packages/django/contrib/auth/views.py',
   'PYMODULE'),
  ('django.views.decorators.debug',
   '/usr/lib/python2.7/dist-packages/django/views/decorators/debug.py',
   'PYMODULE'),
  ('django.views.decorators.cache',
   '/usr/lib/python2.7/dist-packages/django/views/decorators/cache.py',
   'PYMODULE'),
  ('django.shortcuts',
   '/usr/lib/python2.7/dist-packages/django/shortcuts.py',
   'PYMODULE'),
  ('django.contrib.auth',
   '/usr/lib/python2.7/dist-packages/django/contrib/auth/__init__.py',
   'PYMODULE'),
  ('django.middleware.clickjacking',
   '/usr/lib/python2.7/dist-packages/django/middleware/clickjacking.py',
   'PYMODULE'),
  ('django.contrib.admin.templatetags.admin_urls',
   '/usr/lib/python2.7/dist-packages/django/contrib/admin/templatetags/admin_urls.py',
   'PYMODULE'),
  ('django.middleware.common',
   '/usr/lib/python2.7/dist-packages/django/middleware/common.py',
   'PYMODULE'),
  ('django.contrib.contenttypes.checks',
   '/usr/lib/python2.7/dist-packages/django/contrib/contenttypes/checks.py',
   'PYMODULE'),
  ('django.contrib.contenttypes.fields',
   '/usr/lib/python2.7/dist-packages/django/contrib/contenttypes/fields.py',
   'PYMODULE'),
  ('django.contrib.contenttypes.models',
   '/usr/lib/python2.7/dist-packages/django/contrib/contenttypes/models.py',
   'PYMODULE'),
  ('django.contrib.contenttypes.migrations.0002_remove_content_type_name',
   '/usr/lib/python2.7/dist-packages/django/contrib/contenttypes/migrations/0002_remove_content_type_name.py',
   'PYMODULE'),
  ('django.contrib.contenttypes.management',
   '/usr/lib/python2.7/dist-packages/django/contrib/contenttypes/management.py',
   'PYMODULE'),
  ('django.contrib.contenttypes.admin',
   '/usr/lib/python2.7/dist-packages/django/contrib/contenttypes/admin.py',
   'PYMODULE'),
  ('django.contrib.contenttypes.forms',
   '/usr/lib/python2.7/dist-packages/django/contrib/contenttypes/forms.py',
   'PYMODULE'),
  ('django.contrib.contenttypes.apps',
   '/usr/lib/python2.7/dist-packages/django/contrib/contenttypes/apps.py',
   'PYMODULE'),
  ('django.contrib.contenttypes.generic',
   '/usr/lib/python2.7/dist-packages/django/contrib/contenttypes/generic.py',
   'PYMODULE'),
  ('django.contrib.contenttypes.migrations',
   '/usr/lib/python2.7/dist-packages/django/contrib/contenttypes/migrations/__init__.py',
   'PYMODULE'),
  ('django.contrib.contenttypes.migrations.0001_initial',
   '/usr/lib/python2.7/dist-packages/django/contrib/contenttypes/migrations/0001_initial.py',
   'PYMODULE'),
  ('django.contrib.contenttypes',
   '/usr/lib/python2.7/dist-packages/django/contrib/contenttypes/__init__.py',
   'PYMODULE'),
  ('django.contrib.admin.templatetags.log',
   '/usr/lib/python2.7/dist-packages/django/contrib/admin/templatetags/log.py',
   'PYMODULE'),
  ('django.contrib.staticfiles.testing',
   '/usr/lib/python2.7/dist-packages/django/contrib/staticfiles/testing.py',
   'PYMODULE'),
  ('django.test',
   '/usr/lib/python2.7/dist-packages/django/test/__init__.py',
   'PYMODULE'),
  ('django.test.utils',
   '/usr/lib/python2.7/dist-packages/django/test/utils.py',
   'PYMODULE'),
  ('xml.dom.minidom', '/usr/lib/python2.7/xml/dom/minidom.py', 'PYMODULE'),
  ('xml.dom.pulldom', '/usr/lib/python2.7/xml/dom/pulldom.py', 'PYMODULE'),
  ('xml.dom.expatbuilder',
   '/usr/lib/python2.7/xml/dom/expatbuilder.py',
   'PYMODULE'),
  ('xml.dom.NodeFilter',
   '/usr/lib/python2.7/xml/dom/NodeFilter.py',
   'PYMODULE'),
  ('xml.dom.xmlbuilder',
   '/usr/lib/python2.7/xml/dom/xmlbuilder.py',
   'PYMODULE'),
  ('urllib2', '/usr/lib/python2.7/urllib2.py', 'PYMODULE'),
  ('cookielib', '/usr/lib/python2.7/cookielib.py', 'PYMODULE'),
  ('_MozillaCookieJar',
   '/usr/lib/python2.7/_MozillaCookieJar.py',
   'PYMODULE'),
  ('_LWPCookieJar', '/usr/lib/python2.7/_LWPCookieJar.py', 'PYMODULE'),
  ('xml.dom.minicompat',
   '/usr/lib/python2.7/xml/dom/minicompat.py',
   'PYMODULE'),
  ('xml.dom.domreg', '/usr/lib/python2.7/xml/dom/domreg.py', 'PYMODULE'),
  ('xml.dom', '/usr/lib/python2.7/xml/dom/__init__.py', 'PYMODULE'),
  ('django.test.testcases',
   '/usr/lib/python2.7/dist-packages/django/test/testcases.py',
   'PYMODULE'),
  ('django.views.static',
   '/usr/lib/python2.7/dist-packages/django/views/static.py',
   'PYMODULE'),
  ('django.test.html',
   '/usr/lib/python2.7/dist-packages/django/test/html.py',
   'PYMODULE'),
  ('django.core.servers.basehttp',
   '/usr/lib/python2.7/dist-packages/django/core/servers/basehttp.py',
   'PYMODULE'),
  ('django.core.servers',
   '/usr/lib/python2.7/dist-packages/django/core/servers/__init__.py',
   'PYMODULE'),
  ('wsgiref.util', '/usr/lib/python2.7/wsgiref/util.py', 'PYMODULE'),
  ('wsgiref.simple_server',
   '/usr/lib/python2.7/wsgiref/simple_server.py',
   'PYMODULE'),
  ('webbrowser', '/usr/lib/python2.7/webbrowser.py', 'PYMODULE'),
  ('wsgiref.handlers', '/usr/lib/python2.7/wsgiref/handlers.py', 'PYMODULE'),
  ('wsgiref.headers', '/usr/lib/python2.7/wsgiref/headers.py', 'PYMODULE'),
  ('BaseHTTPServer', '/usr/lib/python2.7/BaseHTTPServer.py', 'PYMODULE'),
  ('wsgiref', '/usr/lib/python2.7/wsgiref/__init__.py', 'PYMODULE'),
  ('django.core.management.commands.flush',
   '/usr/lib/python2.7/dist-packages/django/core/management/commands/flush.py',
   'PYMODULE'),
  ('django.db.migrations.executor',
   '/usr/lib/python2.7/dist-packages/django/db/migrations/executor.py',
   'PYMODULE'),
  ('django.core.management.commands',
   '/usr/lib/python2.7/dist-packages/django/core/management/commands/__init__.py',
   'PYMODULE'),
  ('django.test.client',
   '/usr/lib/python2.7/dist-packages/django/test/client.py',
   'PYMODULE'),
  ('django.test.signals',
   '/usr/lib/python2.7/dist-packages/django/test/signals.py',
   'PYMODULE'),
  ('django.contrib.staticfiles.management.commands',
   '/usr/lib/python2.7/dist-packages/django/contrib/staticfiles/management/commands/__init__.py',
   'PYMODULE'),
  ('django.contrib.staticfiles.finders',
   '/usr/lib/python2.7/dist-packages/django/contrib/staticfiles/finders.py',
   'PYMODULE'),
  ('django.contrib.staticfiles.management.commands.runserver',
   '/usr/lib/python2.7/dist-packages/django/contrib/staticfiles/management/commands/runserver.py',
   'PYMODULE'),
  ('django.core.management.commands.runserver',
   '/usr/lib/python2.7/dist-packages/django/core/management/commands/runserver.py',
   'PYMODULE'),
  ('django.contrib.staticfiles.management',
   '/usr/lib/python2.7/dist-packages/django/contrib/staticfiles/management/__init__.py',
   'PYMODULE'),
  ('django.contrib.staticfiles.utils',
   '/usr/lib/python2.7/dist-packages/django/contrib/staticfiles/utils.py',
   'PYMODULE'),
  ('django.contrib.staticfiles.apps',
   '/usr/lib/python2.7/dist-packages/django/contrib/staticfiles/apps.py',
   'PYMODULE'),
  ('django.contrib.staticfiles.urls',
   '/usr/lib/python2.7/dist-packages/django/contrib/staticfiles/urls.py',
   'PYMODULE'),
  ('django.conf.urls.static',
   '/usr/lib/python2.7/dist-packages/django/conf/urls/static.py',
   'PYMODULE'),
  ('django.contrib.staticfiles.management.commands.collectstatic',
   '/usr/lib/python2.7/dist-packages/django/contrib/staticfiles/management/commands/collectstatic.py',
   'PYMODULE'),
  ('django.contrib.staticfiles.storage',
   '/usr/lib/python2.7/dist-packages/django/contrib/staticfiles/storage.py',
   'PYMODULE'),
  ('django.contrib.staticfiles.management.commands.findstatic',
   '/usr/lib/python2.7/dist-packages/django/contrib/staticfiles/management/commands/findstatic.py',
   'PYMODULE'),
  ('django.contrib.staticfiles.handlers',
   '/usr/lib/python2.7/dist-packages/django/contrib/staticfiles/handlers.py',
   'PYMODULE'),
  ('django.contrib.staticfiles',
   '/usr/lib/python2.7/dist-packages/django/contrib/staticfiles/__init__.py',
   'PYMODULE'),
  ('django.middleware.csrf',
   '/usr/lib/python2.7/dist-packages/django/middleware/csrf.py',
   'PYMODULE'),
  ('django.contrib.staticfiles.templatetags',
   '/usr/lib/python2.7/dist-packages/django/contrib/staticfiles/templatetags/__init__.py',
   'PYMODULE'),
  ('django.contrib.auth.backends',
   '/usr/lib/python2.7/dist-packages/django/contrib/auth/backends.py',
   'PYMODULE'),
  ('django.contrib.admin.helpers',
   '/usr/lib/python2.7/dist-packages/django/contrib/admin/helpers.py',
   'PYMODULE'),
  ('django.contrib.admin.filters',
   '/usr/lib/python2.7/dist-packages/django/contrib/admin/filters.py',
   'PYMODULE'),
  ('django.contrib.admin.checks',
   '/usr/lib/python2.7/dist-packages/django/contrib/admin/checks.py',
   'PYMODULE'),
  ('django.contrib.admin.apps',
   '/usr/lib/python2.7/dist-packages/django/contrib/admin/apps.py',
   'PYMODULE'),
  ('django.contrib.admin.forms',
   '/usr/lib/python2.7/dist-packages/django/contrib/admin/forms.py',
   'PYMODULE'),
  ('django.contrib.admin.exceptions',
   '/usr/lib/python2.7/dist-packages/django/contrib/admin/exceptions.py',
   'PYMODULE'),
  ('django.contrib.admin.actions',
   '/usr/lib/python2.7/dist-packages/django/contrib/admin/actions.py',
   'PYMODULE'),
  ('django.contrib.admin.decorators',
   '/usr/lib/python2.7/dist-packages/django/contrib/admin/decorators.py',
   'PYMODULE'),
  ('django.contrib.admin.migrations',
   '/usr/lib/python2.7/dist-packages/django/contrib/admin/migrations/__init__.py',
   'PYMODULE'),
  ('django.contrib.admin',
   '/usr/lib/python2.7/dist-packages/django/contrib/admin/__init__.py',
   'PYMODULE'),
  ('django.contrib.messages.api',
   '/usr/lib/python2.7/dist-packages/django/contrib/messages/api.py',
   'PYMODULE'),
  ('django.contrib.messages.storage.session',
   '/usr/lib/python2.7/dist-packages/django/contrib/messages/storage/session.py',
   'PYMODULE'),
  ('django.contrib.messages.context_processors',
   '/usr/lib/python2.7/dist-packages/django/contrib/messages/context_processors.py',
   'PYMODULE'),
  ('django.contrib.messages.storage.cookie',
   '/usr/lib/python2.7/dist-packages/django/contrib/messages/storage/cookie.py',
   'PYMODULE'),
  ('django.contrib.messages.apps',
   '/usr/lib/python2.7/dist-packages/django/contrib/messages/apps.py',
   'PYMODULE'),
  ('django.contrib.messages.utils',
   '/usr/lib/python2.7/dist-packages/django/contrib/messages/utils.py',
   'PYMODULE'),
  ('django.contrib.messages.storage.fallback',
   '/usr/lib/python2.7/dist-packages/django/contrib/messages/storage/fallback.py',
   'PYMODULE'),
  ('django.contrib.messages.storage',
   '/usr/lib/python2.7/dist-packages/django/contrib/messages/storage/__init__.py',
   'PYMODULE'),
  ('django.contrib.messages.views',
   '/usr/lib/python2.7/dist-packages/django/contrib/messages/views.py',
   'PYMODULE'),
  ('django.contrib.messages.constants',
   '/usr/lib/python2.7/dist-packages/django/contrib/messages/constants.py',
   'PYMODULE'),
  ('django.contrib.messages.storage.base',
   '/usr/lib/python2.7/dist-packages/django/contrib/messages/storage/base.py',
   'PYMODULE'),
  ('django.contrib.messages',
   '/usr/lib/python2.7/dist-packages/django/contrib/messages/__init__.py',
   'PYMODULE'),
  ('django.contrib.staticfiles.views',
   '/usr/lib/python2.7/dist-packages/django/contrib/staticfiles/views.py',
   'PYMODULE'),
  ('blog.views', '/home/allan/trackproj/trackproj/blog/views.py', 'PYMODULE'),
  ('blog.tests', '/home/allan/trackproj/trackproj/blog/tests.py', 'PYMODULE'),
  ('blog.forms', '/home/allan/trackproj/trackproj/blog/forms.py', 'PYMODULE'),
  ('blog.apps', '/home/allan/trackproj/trackproj/blog/apps.py', 'PYMODULE'),
  ('blog.migrations.0002_auto_20170220_1917',
   '/home/allan/trackproj/trackproj/blog/migrations/0002_auto_20170220_1917.py',
   'PYMODULE'),
  ('blog.admin', '/home/allan/trackproj/trackproj/blog/admin.py', 'PYMODULE'),
  ('blog.models',
   '/home/allan/trackproj/trackproj/blog/models.py',
   'PYMODULE'),
  ('blog.migrations',
   '/home/allan/trackproj/trackproj/blog/migrations/__init__.py',
   'PYMODULE'),
  ('blog.migrations.0001_initial',
   '/home/allan/trackproj/trackproj/blog/migrations/0001_initial.py',
   'PYMODULE'),
  ('blog', '/home/allan/trackproj/trackproj/blog/__init__.py', 'PYMODULE'),
  ('django.contrib.contenttypes.views',
   '/usr/lib/python2.7/dist-packages/django/contrib/contenttypes/views.py',
   'PYMODULE'),
  ('django.contrib.auth.admin',
   '/usr/lib/python2.7/dist-packages/django/contrib/auth/admin.py',
   'PYMODULE'),
  ('django.contrib.auth.middleware',
   '/usr/lib/python2.7/dist-packages/django/contrib/auth/middleware.py',
   'PYMODULE'),
  ('django.contrib.admin.templatetags.admin_static',
   '/usr/lib/python2.7/dist-packages/django/contrib/admin/templatetags/admin_static.py',
   'PYMODULE'),
  ('django.contrib.admin.templatetags',
   '/usr/lib/python2.7/dist-packages/django/contrib/admin/templatetags/__init__.py',
   'PYMODULE'),
  ('django.contrib.sessions.backends.cached_db',
   '/usr/lib/python2.7/dist-packages/django/contrib/sessions/backends/cached_db.py',
   'PYMODULE'),
  ('django.contrib.sessions.backends',
   '/usr/lib/python2.7/dist-packages/django/contrib/sessions/backends/__init__.py',
   'PYMODULE'),
  ('django.contrib.sessions.backends.signed_cookies',
   '/usr/lib/python2.7/dist-packages/django/contrib/sessions/backends/signed_cookies.py',
   'PYMODULE'),
  ('django.contrib.sessions.exceptions',
   '/usr/lib/python2.7/dist-packages/django/contrib/sessions/exceptions.py',
   'PYMODULE'),
  ('django.contrib.sessions.management.commands',
   '/usr/lib/python2.7/dist-packages/django/contrib/sessions/management/commands/__init__.py',
   'PYMODULE'),
  ('django.contrib.sessions.management',
   '/usr/lib/python2.7/dist-packages/django/contrib/sessions/management/__init__.py',
   'PYMODULE'),
  ('django.contrib.sessions.models',
   '/usr/lib/python2.7/dist-packages/django/contrib/sessions/models.py',
   'PYMODULE'),
  ('django.contrib.sessions.migrations',
   '/usr/lib/python2.7/dist-packages/django/contrib/sessions/migrations/__init__.py',
   'PYMODULE'),
  ('django.contrib.sessions.middleware',
   '/usr/lib/python2.7/dist-packages/django/contrib/sessions/middleware.py',
   'PYMODULE'),
  ('django.contrib.sessions.migrations.0001_initial',
   '/usr/lib/python2.7/dist-packages/django/contrib/sessions/migrations/0001_initial.py',
   'PYMODULE'),
  ('django.contrib.sessions.backends.file',
   '/usr/lib/python2.7/dist-packages/django/contrib/sessions/backends/file.py',
   'PYMODULE'),
  ('django.contrib.sessions.backends.db',
   '/usr/lib/python2.7/dist-packages/django/contrib/sessions/backends/db.py',
   'PYMODULE'),
  ('django.contrib.sessions.backends.base',
   '/usr/lib/python2.7/dist-packages/django/contrib/sessions/backends/base.py',
   'PYMODULE'),
  ('django.contrib.sessions.apps',
   '/usr/lib/python2.7/dist-packages/django/contrib/sessions/apps.py',
   'PYMODULE'),
  ('django.contrib.sessions.backends.cache',
   '/usr/lib/python2.7/dist-packages/django/contrib/sessions/backends/cache.py',
   'PYMODULE'),
  ('django.contrib.sessions.management.commands.clearsessions',
   '/usr/lib/python2.7/dist-packages/django/contrib/sessions/management/commands/clearsessions.py',
   'PYMODULE'),
  ('django.contrib.sessions.serializers',
   '/usr/lib/python2.7/dist-packages/django/contrib/sessions/serializers.py',
   'PYMODULE'),
  ('django.contrib.sessions',
   '/usr/lib/python2.7/dist-packages/django/contrib/sessions/__init__.py',
   'PYMODULE'),
  ('mysite.urls',
   '/home/allan/trackproj/trackproj/mysite/urls.py',
   'PYMODULE'),
  ('views', '/home/allan/trackproj/trackproj/views.py', 'PYMODULE'),
  ('django.contrib.admin.templatetags.admin_list',
   '/usr/lib/python2.7/dist-packages/django/contrib/admin/templatetags/admin_list.py',
   'PYMODULE'),
  ('django.contrib.admin.sites',
   '/usr/lib/python2.7/dist-packages/django/contrib/admin/sites.py',
   'PYMODULE'),
  ('django.views.i18n',
   '/usr/lib/python2.7/dist-packages/django/views/i18n.py',
   'PYMODULE'),
  ('django.contrib.staticfiles.templatetags.staticfiles',
   '/usr/lib/python2.7/dist-packages/django/contrib/staticfiles/templatetags/staticfiles.py',
   'PYMODULE'),
  ('django.contrib.messages.middleware',
   '/usr/lib/python2.7/dist-packages/django/contrib/messages/middleware.py',
   'PYMODULE'),
  ('django.middleware.security',
   '/usr/lib/python2.7/dist-packages/django/middleware/security.py',
   'PYMODULE'),
  ('django.contrib.auth.context_processors',
   '/usr/lib/python2.7/dist-packages/django/contrib/auth/context_processors.py',
   'PYMODULE'),
  ('django.core.management',
   '/usr/lib/python2.7/dist-packages/django/core/management/__init__.py',
   'PYMODULE'),
  ('django.core.management.commands.check',
   '/usr/lib/python2.7/dist-packages/django/core/management/commands/check.py',
   'PYMODULE'),
  ('django.core.management.commands.sqlflush',
   '/usr/lib/python2.7/dist-packages/django/core/management/commands/sqlflush.py',
   'PYMODULE'),
  ('django.core.management.commands.shell',
   '/usr/lib/python2.7/dist-packages/django/core/management/commands/shell.py',
   'PYMODULE'),
  ('rlcompleter', '/usr/lib/python2.7/rlcompleter.py', 'PYMODULE'),
  ('code', '/usr/lib/python2.7/code.py', 'PYMODULE'),
  ('codeop', '/usr/lib/python2.7/codeop.py', 'PYMODULE'),
  ('django.core.management.commands.validate',
   '/usr/lib/python2.7/dist-packages/django/core/management/commands/validate.py',
   'PYMODULE'),
  ('django.core.management.commands.sqlall',
   '/usr/lib/python2.7/dist-packages/django/core/management/commands/sqlall.py',
   'PYMODULE'),
  ('django.core.management.commands.squashmigrations',
   '/usr/lib/python2.7/dist-packages/django/core/management/commands/squashmigrations.py',
   'PYMODULE'),
  ('django.db.migrations.optimizer',
   '/usr/lib/python2.7/dist-packages/django/db/migrations/optimizer.py',
   'PYMODULE'),
  ('django.core.management.commands.dumpdata',
   '/usr/lib/python2.7/dist-packages/django/core/management/commands/dumpdata.py',
   'PYMODULE'),
  ('django.core.management.commands.dbshell',
   '/usr/lib/python2.7/dist-packages/django/core/management/commands/dbshell.py',
   'PYMODULE'),
  ('django.core.management.commands.showmigrations',
   '/usr/lib/python2.7/dist-packages/django/core/management/commands/showmigrations.py',
   'PYMODULE'),
  ('django.core.management.commands.runfcgi',
   '/usr/lib/python2.7/dist-packages/django/core/management/commands/runfcgi.py',
   'PYMODULE'),
  ('django.core.management.commands.syncdb',
   '/usr/lib/python2.7/dist-packages/django/core/management/commands/syncdb.py',
   'PYMODULE'),
  ('django.core.management.commands.diffsettings',
   '/usr/lib/python2.7/dist-packages/django/core/management/commands/diffsettings.py',
   'PYMODULE'),
  ('django.core.management.commands.sqlindexes',
   '/usr/lib/python2.7/dist-packages/django/core/management/commands/sqlindexes.py',
   'PYMODULE'),
  ('django.core.management.commands.makemigrations',
   '/usr/lib/python2.7/dist-packages/django/core/management/commands/makemigrations.py',
   'PYMODULE'),
  ('django.db.migrations.questioner',
   '/usr/lib/python2.7/dist-packages/django/db/migrations/questioner.py',
   'PYMODULE'),
  ('django.db.migrations.autodetector',
   '/usr/lib/python2.7/dist-packages/django/db/migrations/autodetector.py',
   'PYMODULE'),
  ('django.db.migrations.topological_sort',
   '/usr/lib/python2.7/dist-packages/django/db/migrations/topological_sort.py',
   'PYMODULE'),
  ('django.core.management.commands.sqlmigrate',
   '/usr/lib/python2.7/dist-packages/django/core/management/commands/sqlmigrate.py',
   'PYMODULE'),
  ('django.core.management.commands.createcachetable',
   '/usr/lib/python2.7/dist-packages/django/core/management/commands/createcachetable.py',
   'PYMODULE'),
  ('django.core.cache.backends.db',
   '/usr/lib/python2.7/dist-packages/django/core/cache/backends/db.py',
   'PYMODULE'),
  ('django.core.management.commands.testserver',
   '/usr/lib/python2.7/dist-packages/django/core/management/commands/testserver.py',
   'PYMODULE'),
  ('django.core.management.commands.inspectdb',
   '/usr/lib/python2.7/dist-packages/django/core/management/commands/inspectdb.py',
   'PYMODULE'),
  ('django.core.management.commands.compilemessages',
   '/usr/lib/python2.7/dist-packages/django/core/management/commands/compilemessages.py',
   'PYMODULE'),
  ('django.core.management.utils',
   '/usr/lib/python2.7/dist-packages/django/core/management/utils.py',
   'PYMODULE'),
  ('django.core.management.commands.test',
   '/usr/lib/python2.7/dist-packages/django/core/management/commands/test.py',
   'PYMODULE'),
  ('django.core.management.commands.makemessages',
   '/usr/lib/python2.7/dist-packages/django/core/management/commands/makemessages.py',
   'PYMODULE'),
  ('django.utils.jslex',
   '/usr/lib/python2.7/dist-packages/django/utils/jslex.py',
   'PYMODULE'),
  ('django.core.management.commands.sqlclear',
   '/usr/lib/python2.7/dist-packages/django/core/management/commands/sqlclear.py',
   'PYMODULE'),
  ('django.core.management.commands.sqldropindexes',
   '/usr/lib/python2.7/dist-packages/django/core/management/commands/sqldropindexes.py',
   'PYMODULE'),
  ('django.core.management.commands.migrate',
   '/usr/lib/python2.7/dist-packages/django/core/management/commands/migrate.py',
   'PYMODULE'),
  ('django.core.management.commands.loaddata',
   '/usr/lib/python2.7/dist-packages/django/core/management/commands/loaddata.py',
   'PYMODULE'),
  ('django.core.management.commands.sql',
   '/usr/lib/python2.7/dist-packages/django/core/management/commands/sql.py',
   'PYMODULE'),
  ('django.core.management.commands.sqlcustom',
   '/usr/lib/python2.7/dist-packages/django/core/management/commands/sqlcustom.py',
   'PYMODULE'),
  ('django.core.management.commands.sqlsequencereset',
   '/usr/lib/python2.7/dist-packages/django/core/management/commands/sqlsequencereset.py',
   'PYMODULE'),
  ('django.core.management.commands.startproject',
   '/usr/lib/python2.7/dist-packages/django/core/management/commands/startproject.py',
   'PYMODULE'),
  ('django.core.management.templates',
   '/usr/lib/python2.7/dist-packages/django/core/management/templates.py',
   'PYMODULE'),
  ('django.core.management.commands.startapp',
   '/usr/lib/python2.7/dist-packages/django/core/management/commands/startapp.py',
   'PYMODULE'),
  ('django.core.servers.fastcgi',
   '/usr/lib/python2.7/dist-packages/django/core/servers/fastcgi.py',
   'PYMODULE'),
  ('django.utils.daemonize',
   '/usr/lib/python2.7/dist-packages/django/utils/daemonize.py',
   'PYMODULE'),
  ('os', '/usr/lib/python2.7/os.py', 'PYMODULE'),
  ('os2emxpath', '/usr/lib/python2.7/os2emxpath.py', 'PYMODULE'),
  ('ntpath', '/usr/lib/python2.7/ntpath.py', 'PYMODULE')])
